EESchema Schematic File Version 4
EELAYER 30 0
EELAYER END
$Descr A4 11693 8268
encoding utf-8
Sheet 1 3
Title ""
Date ""
Rev ""
Comp ""
Comment1 ""
Comment2 ""
Comment3 ""
Comment4 ""
$EndDescr
$Comp
L MCU_Microchip_ATmega:ATmega32U4-AU U1
U 1 1 602D14EC
P 3600 3050
F 0 "U1" H 3900 4850 50  0000 C CNN
F 1 "ATmega32U4-AU" H 4000 1250 50  0000 C CNN
F 2 "Package_QFP:TQFP-44_10x10mm_P0.8mm" H 3600 3050 50  0001 C CIN
F 3 "http://ww1.microchip.com/downloads/en/DeviceDoc/Atmel-7766-8-bit-AVR-ATmega16U4-32U4_Datasheet.pdf" H 3600 3050 50  0001 C CNN
F 4 "C44854" H 3600 3050 50  0001 C CNN "LCSC"
	1    3600 3050
	1    0    0    -1  
$EndComp
$Comp
L power:GND #PWR018
U 1 1 602D2399
P 3600 5050
F 0 "#PWR018" H 3600 4800 50  0001 C CNN
F 1 "GND" H 3605 4877 50  0000 C CNN
F 2 "" H 3600 5050 50  0001 C CNN
F 3 "" H 3600 5050 50  0001 C CNN
	1    3600 5050
	1    0    0    -1  
$EndComp
Wire Wire Line
	3600 5050 3600 4950
Wire Wire Line
	3600 4950 3500 4950
Wire Wire Line
	3500 4950 3500 4850
Connection ~ 3600 4950
Wire Wire Line
	3600 4950 3600 4850
$Comp
L power:VCC #PWR017
U 1 1 602D74BA
P 3500 1050
F 0 "#PWR017" H 3500 900 50  0001 C CNN
F 1 "VCC" H 3515 1223 50  0000 C CNN
F 2 "" H 3500 1050 50  0001 C CNN
F 3 "" H 3500 1050 50  0001 C CNN
	1    3500 1050
	1    0    0    -1  
$EndComp
Wire Wire Line
	3500 1050 3500 1150
Wire Wire Line
	3500 1150 3600 1150
Wire Wire Line
	3600 1150 3600 1250
Connection ~ 3500 1150
Wire Wire Line
	3500 1150 3500 1250
Wire Wire Line
	3000 2650 2600 2650
$Sheet
S 6200 2750 900  600 
U 60304BBA
F0 "Supply" 50
F1 "Supply.sch" 50
F2 "~VSW_fault" O L 6200 2950 50 
F3 "req_VSW" I L 6200 3150 50 
$EndSheet
$Comp
L Memory_Flash:W25Q128JVS U2
U 1 1 604DB21B
P 9250 1650
F 0 "U2" H 9500 2050 50  0000 C CNN
F 1 "W25Q128JVS" H 9600 1250 50  0000 C CNN
F 2 "Package_SO:SOIC-8_5.275x5.275mm_P1.27mm" H 9250 1650 50  0001 C CNN
F 3 "http://www.winbond.com/resource-files/w25q128jv_dtr%20revc%2003272018%20plus.pdf" H 9250 1650 50  0001 C CNN
F 4 "C97521" H 9250 1650 50  0001 C CNN "LCSC"
	1    9250 1650
	1    0    0    -1  
$EndComp
$Comp
L power:GND #PWR031
U 1 1 604E184B
P 9250 2150
F 0 "#PWR031" H 9250 1900 50  0001 C CNN
F 1 "GND" H 9255 1977 50  0000 C CNN
F 2 "" H 9250 2150 50  0001 C CNN
F 3 "" H 9250 2150 50  0001 C CNN
	1    9250 2150
	1    0    0    -1  
$EndComp
Wire Wire Line
	9250 2150 9250 2050
$Comp
L power:VCC #PWR030
U 1 1 604E2811
P 9250 950
F 0 "#PWR030" H 9250 800 50  0001 C CNN
F 1 "VCC" H 9265 1123 50  0000 C CNN
F 2 "" H 9250 950 50  0001 C CNN
F 3 "" H 9250 950 50  0001 C CNN
	1    9250 950 
	1    0    0    -1  
$EndComp
Wire Wire Line
	9250 950  9250 1250
$Comp
L Device:R R?
U 1 1 604EBF21
P 9850 1200
AR Path="/60304BBA/604EBF21" Ref="R?"  Part="1" 
AR Path="/604EBF21" Ref="R11"  Part="1" 
F 0 "R11" H 9920 1246 50  0000 L CNN
F 1 "10k" H 9920 1155 50  0000 L CNN
F 2 "Resistor_SMD:R_0603_1608Metric" V 9780 1200 50  0001 C CNN
F 3 "~" H 9850 1200 50  0001 C CNN
F 4 "C25804" H 9850 1200 50  0001 C CNN "LCSC"
	1    9850 1200
	1    0    0    -1  
$EndComp
$Comp
L Device:R R?
U 1 1 604EC434
P 10150 1200
AR Path="/60304BBA/604EC434" Ref="R?"  Part="1" 
AR Path="/604EC434" Ref="R12"  Part="1" 
F 0 "R12" H 10220 1246 50  0000 L CNN
F 1 "10k" H 10220 1155 50  0000 L CNN
F 2 "Resistor_SMD:R_0603_1608Metric" V 10080 1200 50  0001 C CNN
F 3 "~" H 10150 1200 50  0001 C CNN
F 4 "C25804" H 10150 1200 50  0001 C CNN "LCSC"
	1    10150 1200
	1    0    0    -1  
$EndComp
Wire Wire Line
	9750 1450 10600 1450
Wire Wire Line
	9750 1550 10600 1550
Wire Wire Line
	10150 1350 10150 1850
Wire Wire Line
	10150 1850 9750 1850
Wire Wire Line
	9750 1750 9850 1750
Wire Wire Line
	9850 1750 9850 1350
$Comp
L power:VCC #PWR032
U 1 1 604EEE25
P 9850 950
F 0 "#PWR032" H 9850 800 50  0001 C CNN
F 1 "VCC" H 9865 1123 50  0000 C CNN
F 2 "" H 9850 950 50  0001 C CNN
F 3 "" H 9850 950 50  0001 C CNN
	1    9850 950 
	1    0    0    -1  
$EndComp
Wire Wire Line
	9850 950  9850 1050
$Comp
L power:VCC #PWR033
U 1 1 604F00B5
P 10150 950
F 0 "#PWR033" H 10150 800 50  0001 C CNN
F 1 "VCC" H 10165 1123 50  0000 C CNN
F 2 "" H 10150 950 50  0001 C CNN
F 3 "" H 10150 950 50  0001 C CNN
	1    10150 950 
	1    0    0    -1  
$EndComp
Wire Wire Line
	10150 950  10150 1050
Wire Wire Line
	8750 1550 8600 1550
Wire Wire Line
	8750 1750 8200 1750
Text Label 8200 1750 0    50   ~ 0
SCK
Text Label 8200 1550 0    50   ~ 0
~FL_CS
Text Label 10600 1450 2    50   ~ 0
MOSI
Text Label 10600 1550 2    50   ~ 0
MISO
$Comp
L Device:R R?
U 1 1 604F71FB
P 8600 1200
AR Path="/60304BBA/604F71FB" Ref="R?"  Part="1" 
AR Path="/604F71FB" Ref="R10"  Part="1" 
F 0 "R10" H 8670 1246 50  0000 L CNN
F 1 "10k" H 8670 1155 50  0000 L CNN
F 2 "Resistor_SMD:R_0603_1608Metric" V 8530 1200 50  0001 C CNN
F 3 "~" H 8600 1200 50  0001 C CNN
F 4 "C25804" H 8600 1200 50  0001 C CNN "LCSC"
	1    8600 1200
	1    0    0    -1  
$EndComp
$Comp
L power:VCC #PWR029
U 1 1 604F72AB
P 8600 950
F 0 "#PWR029" H 8600 800 50  0001 C CNN
F 1 "VCC" H 8615 1123 50  0000 C CNN
F 2 "" H 8600 950 50  0001 C CNN
F 3 "" H 8600 950 50  0001 C CNN
	1    8600 950 
	1    0    0    -1  
$EndComp
Wire Wire Line
	8600 950  8600 1050
Wire Wire Line
	8600 1550 8600 1350
Connection ~ 8600 1550
Wire Wire Line
	8600 1550 8200 1550
$Comp
L Device:R R?
U 1 1 604FF3D7
P 2700 1300
AR Path="/60304BBA/604FF3D7" Ref="R?"  Part="1" 
AR Path="/604FF3D7" Ref="R3"  Part="1" 
F 0 "R3" H 2770 1346 50  0000 L CNN
F 1 "10k" H 2770 1255 50  0000 L CNN
F 2 "Resistor_SMD:R_0603_1608Metric" V 2630 1300 50  0001 C CNN
F 3 "~" H 2700 1300 50  0001 C CNN
F 4 "C25804" H 2700 1300 50  0001 C CNN "LCSC"
	1    2700 1300
	1    0    0    -1  
$EndComp
Wire Wire Line
	3000 1550 2700 1550
Wire Wire Line
	2700 1450 2700 1550
Connection ~ 2700 1550
Wire Wire Line
	2700 1550 2250 1550
Wire Wire Line
	2700 1050 2700 1150
Text Label 2250 1550 0    50   ~ 0
~RST
$Comp
L Connector:AVR-ISP-6 J1
U 1 1 60503C80
P 6350 1600
F 0 "J1" H 6021 1696 50  0000 R CNN
F 1 "AVR-ISP-6" H 6021 1605 50  0000 R CNN
F 2 "Connector_PinHeader_2.54mm:PinHeader_2x03_P2.54mm_Vertical" V 6100 1650 50  0001 C CNN
F 3 " ~" H 5075 1050 50  0001 C CNN
	1    6350 1600
	1    0    0    -1  
$EndComp
$Comp
L power:VCC #PWR027
U 1 1 60504680
P 6250 1000
F 0 "#PWR027" H 6250 850 50  0001 C CNN
F 1 "VCC" H 6265 1173 50  0000 C CNN
F 2 "" H 6250 1000 50  0001 C CNN
F 3 "" H 6250 1000 50  0001 C CNN
	1    6250 1000
	1    0    0    -1  
$EndComp
Wire Wire Line
	6250 1000 6250 1100
$Comp
L power:GND #PWR028
U 1 1 60505A81
P 6250 2100
F 0 "#PWR028" H 6250 1850 50  0001 C CNN
F 1 "GND" H 6255 1927 50  0000 C CNN
F 2 "" H 6250 2100 50  0001 C CNN
F 3 "" H 6250 2100 50  0001 C CNN
	1    6250 2100
	1    0    0    -1  
$EndComp
Wire Wire Line
	6250 2100 6250 2000
Wire Wire Line
	6750 1400 7150 1400
Wire Wire Line
	6750 1500 7150 1500
Wire Wire Line
	6750 1600 7150 1600
Wire Wire Line
	6750 1700 7150 1700
Text Label 7150 1700 2    50   ~ 0
~RST
Text Label 7150 1400 2    50   ~ 0
MISO
Text Label 7150 1500 2    50   ~ 0
MOSI
Text Label 7150 1600 2    50   ~ 0
SCK
$Comp
L Device:C C?
U 1 1 60513EA0
P 2300 3100
AR Path="/60304BBA/60513EA0" Ref="C?"  Part="1" 
AR Path="/60513EA0" Ref="C5"  Part="1" 
F 0 "C5" H 2415 3146 50  0000 L CNN
F 1 "100n" H 2415 3055 50  0000 L CNN
F 2 "Capacitor_SMD:C_0603_1608Metric" H 2338 2950 50  0001 C CNN
F 3 "~" H 2300 3100 50  0001 C CNN
F 4 "C14663" H 2300 3100 50  0001 C CNN "LCSC"
	1    2300 3100
	1    0    0    -1  
$EndComp
Wire Wire Line
	3000 2150 2300 2150
Wire Wire Line
	2300 2150 2300 2950
$Comp
L power:GND #PWR09
U 1 1 60516E02
P 2300 3350
F 0 "#PWR09" H 2300 3100 50  0001 C CNN
F 1 "GND" H 2305 3177 50  0000 C CNN
F 2 "" H 2300 3350 50  0001 C CNN
F 3 "" H 2300 3350 50  0001 C CNN
	1    2300 3350
	1    0    0    -1  
$EndComp
Wire Wire Line
	2300 3350 2300 3250
$Comp
L power:VBUS #PWR016
U 1 1 605192EE
P 2900 2350
F 0 "#PWR016" H 2900 2200 50  0001 C CNN
F 1 "VBUS" V 2915 2477 50  0000 L CNN
F 2 "" H 2900 2350 50  0001 C CNN
F 3 "" H 2900 2350 50  0001 C CNN
	1    2900 2350
	0    -1   -1   0   
$EndComp
Wire Wire Line
	2900 2350 3000 2350
$Comp
L Device:C C?
U 1 1 6051BF31
P 2750 3100
AR Path="/60304BBA/6051BF31" Ref="C?"  Part="1" 
AR Path="/6051BF31" Ref="C7"  Part="1" 
F 0 "C7" H 2865 3146 50  0000 L CNN
F 1 "1u" H 2865 3055 50  0000 L CNN
F 2 "Capacitor_SMD:C_0603_1608Metric" H 2788 2950 50  0001 C CNN
F 3 "~" H 2750 3100 50  0001 C CNN
F 4 "C15849" H 2750 3100 50  0001 C CNN "LCSC"
	1    2750 3100
	1    0    0    -1  
$EndComp
$Comp
L power:GND #PWR014
U 1 1 60520909
P 2750 3350
F 0 "#PWR014" H 2750 3100 50  0001 C CNN
F 1 "GND" H 2755 3177 50  0000 C CNN
F 2 "" H 2750 3350 50  0001 C CNN
F 3 "" H 2750 3350 50  0001 C CNN
	1    2750 3350
	1    0    0    -1  
$EndComp
Wire Wire Line
	2750 3350 2750 3250
Wire Wire Line
	3000 2850 2750 2850
Wire Wire Line
	2750 2850 2750 2950
$Comp
L Device:Crystal_GND24 Y1
U 1 1 60528CAB
P 1400 2000
F 0 "Y1" V 1250 2250 50  0000 L CNN
F 1 "16MHz" V 1350 2250 50  0000 L CNN
F 2 "Crystal:Crystal_SMD_3225-4Pin_3.2x2.5mm" H 1400 2000 50  0001 C CNN
F 3 "~" H 1400 2000 50  0001 C CNN
F 4 "C13738" H 1400 2000 50  0001 C CNN "LCSC"
	1    1400 2000
	0    1    1    0   
$EndComp
$Comp
L Device:C C?
U 1 1 6052AE4A
P 1400 2650
AR Path="/60304BBA/6052AE4A" Ref="C?"  Part="1" 
AR Path="/6052AE4A" Ref="C3"  Part="1" 
F 0 "C3" H 1515 2696 50  0000 L CNN
F 1 "15p" H 1515 2605 50  0000 L CNN
F 2 "Capacitor_SMD:C_0603_1608Metric" H 1438 2500 50  0001 C CNN
F 3 "~" H 1400 2650 50  0001 C CNN
F 4 "C1644" H 1400 2650 50  0001 C CNN "LCSC"
	1    1400 2650
	1    0    0    -1  
$EndComp
$Comp
L power:GND #PWR07
U 1 1 60537E3C
P 1700 2100
F 0 "#PWR07" H 1700 1850 50  0001 C CNN
F 1 "GND" H 1705 1927 50  0000 C CNN
F 2 "" H 1700 2100 50  0001 C CNN
F 3 "" H 1700 2100 50  0001 C CNN
	1    1700 2100
	1    0    0    -1  
$EndComp
Wire Wire Line
	1600 2000 1700 2000
Wire Wire Line
	1700 2000 1700 2100
Wire Wire Line
	1400 1850 1400 1750
Wire Wire Line
	1400 1750 3000 1750
$Comp
L power:GND #PWR02
U 1 1 605419D1
P 1100 2100
F 0 "#PWR02" H 1100 1850 50  0001 C CNN
F 1 "GND" H 1105 1927 50  0000 C CNN
F 2 "" H 1100 2100 50  0001 C CNN
F 3 "" H 1100 2100 50  0001 C CNN
	1    1100 2100
	-1   0    0    -1  
$EndComp
Wire Wire Line
	1200 2000 1100 2000
Wire Wire Line
	1100 2000 1100 2100
Wire Wire Line
	1400 2150 1400 2400
Wire Wire Line
	1400 2400 2000 2400
Wire Wire Line
	2000 2400 2000 1950
Wire Wire Line
	2000 1950 3000 1950
$Comp
L Device:C C?
U 1 1 6054C883
P 950 2650
AR Path="/60304BBA/6054C883" Ref="C?"  Part="1" 
AR Path="/6054C883" Ref="C1"  Part="1" 
F 0 "C1" H 1065 2696 50  0000 L CNN
F 1 "15p" H 1065 2605 50  0000 L CNN
F 2 "Capacitor_SMD:C_0603_1608Metric" H 988 2500 50  0001 C CNN
F 3 "~" H 950 2650 50  0001 C CNN
F 4 "C1644" H 950 2650 50  0001 C CNN "LCSC"
	1    950  2650
	1    0    0    -1  
$EndComp
Wire Wire Line
	950  2500 950  1750
Wire Wire Line
	950  1750 1400 1750
Connection ~ 1400 1750
Wire Wire Line
	1400 2400 1400 2500
Connection ~ 1400 2400
$Comp
L power:GND #PWR01
U 1 1 60551E61
P 950 2900
F 0 "#PWR01" H 950 2650 50  0001 C CNN
F 1 "GND" H 955 2727 50  0000 C CNN
F 2 "" H 950 2900 50  0001 C CNN
F 3 "" H 950 2900 50  0001 C CNN
	1    950  2900
	1    0    0    -1  
$EndComp
Wire Wire Line
	950  2900 950  2800
$Comp
L power:GND #PWR05
U 1 1 60551E6C
P 1400 2900
F 0 "#PWR05" H 1400 2650 50  0001 C CNN
F 1 "GND" H 1405 2727 50  0000 C CNN
F 2 "" H 1400 2900 50  0001 C CNN
F 3 "" H 1400 2900 50  0001 C CNN
	1    1400 2900
	1    0    0    -1  
$EndComp
Wire Wire Line
	1400 2900 1400 2800
Wire Wire Line
	4200 1850 4650 1850
Text Label 4650 1850 2    50   ~ 0
MISO
Wire Wire Line
	4200 1750 4650 1750
Text Label 4650 1750 2    50   ~ 0
MOSI
Wire Wire Line
	4200 1650 4650 1650
Text Label 4650 1650 2    50   ~ 0
SCK
Wire Wire Line
	4200 1550 4650 1550
Text Label 4650 1550 2    50   ~ 0
~RXLED
Wire Wire Line
	4200 2250 4650 2250
Text Label 4650 2250 2    50   ~ 0
~FL_CS
Wire Wire Line
	4200 3250 4650 3250
Text Label 4650 3250 2    50   ~ 0
~TXLED
$Comp
L Device:R R?
U 1 1 6057FF5E
P 4950 3900
AR Path="/60304BBA/6057FF5E" Ref="R?"  Part="1" 
AR Path="/6057FF5E" Ref="R7"  Part="1" 
F 0 "R7" H 5020 3946 50  0000 L CNN
F 1 "10k" H 5020 3855 50  0000 L CNN
F 2 "Resistor_SMD:R_0603_1608Metric" V 4880 3900 50  0001 C CNN
F 3 "~" H 4950 3900 50  0001 C CNN
F 4 "C25804" H 4950 3900 50  0001 C CNN "LCSC"
	1    4950 3900
	1    0    0    -1  
$EndComp
Wire Wire Line
	4200 3650 4950 3650
Wire Wire Line
	4950 3650 4950 3750
$Comp
L power:GND #PWR023
U 1 1 60591A43
P 4950 4150
F 0 "#PWR023" H 4950 3900 50  0001 C CNN
F 1 "GND" H 4955 3977 50  0000 C CNN
F 2 "" H 4950 4150 50  0001 C CNN
F 3 "" H 4950 4150 50  0001 C CNN
	1    4950 4150
	1    0    0    -1  
$EndComp
Wire Wire Line
	4950 4150 4950 4050
Wire Wire Line
	2600 2550 3000 2550
Text Label 2600 2550 0    50   ~ 0
D+
Text Label 2600 2650 0    50   ~ 0
D-
$Comp
L Device:LED D?
U 1 1 606B35F3
P 1850 6700
AR Path="/60304BBA/606B35F3" Ref="D?"  Part="1" 
AR Path="/606B35F3" Ref="D1"  Part="1" 
F 0 "D1" V 1889 6582 50  0000 R CNN
F 1 "green" V 1798 6582 50  0000 R CNN
F 2 "LED_SMD:LED_0603_1608Metric" H 1850 6700 50  0001 C CNN
F 3 "~" H 1850 6700 50  0001 C CNN
F 4 "C72043" V 1850 6700 50  0001 C CNN "LCSC"
	1    1850 6700
	0    -1   -1   0   
$EndComp
$Comp
L Device:R R?
U 1 1 606BBCDA
P 1850 6300
AR Path="/60304BBA/606BBCDA" Ref="R?"  Part="1" 
AR Path="/606BBCDA" Ref="R1"  Part="1" 
F 0 "R1" H 1920 6346 50  0000 L CNN
F 1 "1k" H 1920 6255 50  0000 L CNN
F 2 "Resistor_SMD:R_0603_1608Metric" V 1780 6300 50  0001 C CNN
F 3 "~" H 1850 6300 50  0001 C CNN
F 4 "C21190" H 1850 6300 50  0001 C CNN "LCSC"
	1    1850 6300
	1    0    0    -1  
$EndComp
Wire Wire Line
	1850 6450 1850 6550
$Comp
L power:VCC #PWR08
U 1 1 606C61E8
P 1850 6050
F 0 "#PWR08" H 1850 5900 50  0001 C CNN
F 1 "VCC" H 1865 6223 50  0000 C CNN
F 2 "" H 1850 6050 50  0001 C CNN
F 3 "" H 1850 6050 50  0001 C CNN
	1    1850 6050
	1    0    0    -1  
$EndComp
Wire Wire Line
	1850 6050 1850 6150
Wire Wire Line
	1850 6850 1850 6950
Wire Wire Line
	1850 6950 1350 6950
$Comp
L Device:LED D?
U 1 1 606D19E4
P 2350 6700
AR Path="/60304BBA/606D19E4" Ref="D?"  Part="1" 
AR Path="/606D19E4" Ref="D2"  Part="1" 
F 0 "D2" V 2389 6582 50  0000 R CNN
F 1 "red" V 2298 6582 50  0000 R CNN
F 2 "LED_SMD:LED_0603_1608Metric" H 2350 6700 50  0001 C CNN
F 3 "~" H 2350 6700 50  0001 C CNN
F 4 "C2286" V 2350 6700 50  0001 C CNN "LCSC"
	1    2350 6700
	0    -1   -1   0   
$EndComp
$Comp
L Device:R R?
U 1 1 606D19EF
P 2350 6300
AR Path="/60304BBA/606D19EF" Ref="R?"  Part="1" 
AR Path="/606D19EF" Ref="R2"  Part="1" 
F 0 "R2" H 2420 6346 50  0000 L CNN
F 1 "1k" H 2420 6255 50  0000 L CNN
F 2 "Resistor_SMD:R_0603_1608Metric" V 2280 6300 50  0001 C CNN
F 3 "~" H 2350 6300 50  0001 C CNN
F 4 "C21190" H 2350 6300 50  0001 C CNN "LCSC"
	1    2350 6300
	1    0    0    -1  
$EndComp
Wire Wire Line
	2350 6450 2350 6550
$Comp
L power:VCC #PWR012
U 1 1 606D19FA
P 2350 6050
F 0 "#PWR012" H 2350 5900 50  0001 C CNN
F 1 "VCC" H 2365 6223 50  0000 C CNN
F 2 "" H 2350 6050 50  0001 C CNN
F 3 "" H 2350 6050 50  0001 C CNN
	1    2350 6050
	1    0    0    -1  
$EndComp
Wire Wire Line
	2350 6050 2350 6150
Wire Wire Line
	2350 7050 2350 6850
Wire Wire Line
	1350 7050 2350 7050
Text Label 1350 7050 0    50   ~ 0
~TXLED
Text Label 1350 6950 0    50   ~ 0
~RXLED
Wire Wire Line
	4200 2550 4650 2550
Text Label 4650 2550 2    50   ~ 0
~STLED
Text Label 1350 7150 0    50   ~ 0
~STLED
$Comp
L Device:LED D?
U 1 1 606FF5F1
P 2850 6700
AR Path="/60304BBA/606FF5F1" Ref="D?"  Part="1" 
AR Path="/606FF5F1" Ref="D3"  Part="1" 
F 0 "D3" V 2889 6582 50  0000 R CNN
F 1 "white" V 2798 6582 50  0000 R CNN
F 2 "LED_SMD:LED_0603_1608Metric" H 2850 6700 50  0001 C CNN
F 3 "~" H 2850 6700 50  0001 C CNN
F 4 "C2290" V 2850 6700 50  0001 C CNN "LCSC"
	1    2850 6700
	0    -1   -1   0   
$EndComp
$Comp
L Device:R R?
U 1 1 606FF5FC
P 2850 6300
AR Path="/60304BBA/606FF5FC" Ref="R?"  Part="1" 
AR Path="/606FF5FC" Ref="R4"  Part="1" 
F 0 "R4" H 2920 6346 50  0000 L CNN
F 1 "4k3" H 2920 6255 50  0000 L CNN
F 2 "Resistor_SMD:R_0603_1608Metric" V 2780 6300 50  0001 C CNN
F 3 "~" H 2850 6300 50  0001 C CNN
F 4 "C23159" H 2850 6300 50  0001 C CNN "LCSC"
	1    2850 6300
	1    0    0    -1  
$EndComp
Wire Wire Line
	2850 6450 2850 6550
$Comp
L power:VCC #PWR015
U 1 1 606FF607
P 2850 6050
F 0 "#PWR015" H 2850 5900 50  0001 C CNN
F 1 "VCC" H 2865 6223 50  0000 C CNN
F 2 "" H 2850 6050 50  0001 C CNN
F 3 "" H 2850 6050 50  0001 C CNN
	1    2850 6050
	1    0    0    -1  
$EndComp
Wire Wire Line
	2850 6050 2850 6150
Wire Wire Line
	1350 7150 2850 7150
Wire Wire Line
	2850 6850 2850 7150
$Comp
L Device:R R?
U 1 1 602FD314
P 4500 6250
AR Path="/60304BBA/602FD314" Ref="R?"  Part="1" 
AR Path="/602FD314" Ref="R5"  Part="1" 
F 0 "R5" H 4570 6296 50  0000 L CNN
F 1 "5k6" H 4570 6205 50  0000 L CNN
F 2 "Resistor_SMD:R_0603_1608Metric" V 4430 6250 50  0001 C CNN
F 3 "~" H 4500 6250 50  0001 C CNN
F 4 "C23189" H 4500 6250 50  0001 C CNN "LCSC"
	1    4500 6250
	1    0    0    -1  
$EndComp
$Comp
L Device:R R?
U 1 1 6030127E
P 4500 6750
AR Path="/60304BBA/6030127E" Ref="R?"  Part="1" 
AR Path="/6030127E" Ref="R6"  Part="1" 
F 0 "R6" H 4570 6796 50  0000 L CNN
F 1 "3k" H 4570 6705 50  0000 L CNN
F 2 "Resistor_SMD:R_0603_1608Metric" V 4430 6750 50  0001 C CNN
F 3 "~" H 4500 6750 50  0001 C CNN
F 4 "C4211" H 4500 6750 50  0001 C CNN "LCSC"
	1    4500 6750
	1    0    0    -1  
$EndComp
Wire Wire Line
	4200 3950 4650 3950
Wire Wire Line
	4200 4050 4650 4050
Text Label 4650 3950 2    50   ~ 0
mVBUS
Text Label 4650 4050 2    50   ~ 0
mVSW
$Comp
L power:GND #PWR021
U 1 1 60322718
P 4500 7000
F 0 "#PWR021" H 4500 6750 50  0001 C CNN
F 1 "GND" H 4505 6827 50  0000 C CNN
F 2 "" H 4500 7000 50  0001 C CNN
F 3 "" H 4500 7000 50  0001 C CNN
	1    4500 7000
	1    0    0    -1  
$EndComp
Wire Wire Line
	4500 6400 4500 6500
Wire Wire Line
	4500 6900 4500 7000
Wire Wire Line
	4500 6100 4500 6000
$Comp
L power:+VSW #PWR020
U 1 1 60331CAE
P 4500 6000
F 0 "#PWR020" H 4500 5850 50  0001 C CNN
F 1 "+VSW" H 4515 6173 50  0000 C CNN
F 2 "" H 4500 6000 50  0001 C CNN
F 3 "" H 4500 6000 50  0001 C CNN
	1    4500 6000
	1    0    0    -1  
$EndComp
$Comp
L Device:R R?
U 1 1 60333389
P 5600 6250
AR Path="/60304BBA/60333389" Ref="R?"  Part="1" 
AR Path="/60333389" Ref="R8"  Part="1" 
F 0 "R8" H 5670 6296 50  0000 L CNN
F 1 "5k6" H 5670 6205 50  0000 L CNN
F 2 "Resistor_SMD:R_0603_1608Metric" V 5530 6250 50  0001 C CNN
F 3 "~" H 5600 6250 50  0001 C CNN
F 4 "C23189" H 5600 6250 50  0001 C CNN "LCSC"
	1    5600 6250
	1    0    0    -1  
$EndComp
$Comp
L Device:R R?
U 1 1 603335D6
P 5600 6750
AR Path="/60304BBA/603335D6" Ref="R?"  Part="1" 
AR Path="/603335D6" Ref="R9"  Part="1" 
F 0 "R9" H 5670 6796 50  0000 L CNN
F 1 "3k" H 5670 6705 50  0000 L CNN
F 2 "Resistor_SMD:R_0603_1608Metric" V 5530 6750 50  0001 C CNN
F 3 "~" H 5600 6750 50  0001 C CNN
F 4 "C4211" H 5600 6750 50  0001 C CNN "LCSC"
	1    5600 6750
	1    0    0    -1  
$EndComp
$Comp
L power:GND #PWR025
U 1 1 603335E0
P 5600 7000
F 0 "#PWR025" H 5600 6750 50  0001 C CNN
F 1 "GND" H 5605 6827 50  0000 C CNN
F 2 "" H 5600 7000 50  0001 C CNN
F 3 "" H 5600 7000 50  0001 C CNN
	1    5600 7000
	1    0    0    -1  
$EndComp
Wire Wire Line
	5600 6400 5600 6500
Wire Wire Line
	5600 6900 5600 7000
Wire Wire Line
	5600 6100 5600 6000
$Comp
L power:VBUS #PWR024
U 1 1 6033B1B9
P 5600 6000
F 0 "#PWR024" H 5600 5850 50  0001 C CNN
F 1 "VBUS" H 5615 6173 50  0000 C CNN
F 2 "" H 5600 6000 50  0001 C CNN
F 3 "" H 5600 6000 50  0001 C CNN
	1    5600 6000
	1    0    0    -1  
$EndComp
Wire Wire Line
	4500 6500 4850 6500
Connection ~ 4500 6500
Wire Wire Line
	4500 6500 4500 6600
Text Label 6300 6500 2    50   ~ 0
mVBUS
Text Label 5200 6500 2    50   ~ 0
mVSW
Wire Wire Line
	5600 6500 5950 6500
Connection ~ 5600 6500
Wire Wire Line
	5600 6500 5600 6600
$Comp
L Device:C C?
U 1 1 60375A56
P 9100 4200
AR Path="/60304BBA/60375A56" Ref="C?"  Part="1" 
AR Path="/60375A56" Ref="C4"  Part="1" 
F 0 "C4" H 9215 4246 50  0000 L CNN
F 1 "100n" H 9215 4155 50  0000 L CNN
F 2 "Capacitor_SMD:C_0603_1608Metric" H 9138 4050 50  0001 C CNN
F 3 "~" H 9100 4200 50  0001 C CNN
F 4 "C14663" H 9100 4200 50  0001 C CNN "LCSC"
	1    9100 4200
	1    0    0    -1  
$EndComp
$Comp
L power:GND #PWR06
U 1 1 60375D0C
P 9100 4450
F 0 "#PWR06" H 9100 4200 50  0001 C CNN
F 1 "GND" H 9105 4277 50  0000 C CNN
F 2 "" H 9100 4450 50  0001 C CNN
F 3 "" H 9100 4450 50  0001 C CNN
	1    9100 4450
	1    0    0    -1  
$EndComp
Wire Wire Line
	9100 4450 9100 4350
$Comp
L power:VCC #PWR013
U 1 1 60501891
P 2700 1050
F 0 "#PWR013" H 2700 900 50  0001 C CNN
F 1 "VCC" H 2715 1223 50  0000 C CNN
F 2 "" H 2700 1050 50  0001 C CNN
F 3 "" H 2700 1050 50  0001 C CNN
	1    2700 1050
	1    0    0    -1  
$EndComp
$Comp
L power:VCC #PWR03
U 1 1 603827C3
P 7750 3850
F 0 "#PWR03" H 7750 3700 50  0001 C CNN
F 1 "VCC" H 7765 4023 50  0000 C CNN
F 2 "" H 7750 3850 50  0001 C CNN
F 3 "" H 7750 3850 50  0001 C CNN
	1    7750 3850
	1    0    0    -1  
$EndComp
$Comp
L Device:L_Core_Ferrite L1
U 1 1 60389027
P 9500 3950
F 0 "L1" V 9725 3950 50  0000 C CNN
F 1 "10u" V 9634 3950 50  0000 C CNN
F 2 "Inductor_SMD:L_0603_1608Metric" H 9500 3950 50  0001 C CNN
F 3 "~" H 9500 3950 50  0001 C CNN
F 4 "C1035" V 9500 3950 50  0001 C CNN "LCSC"
	1    9500 3950
	0    -1   -1   0   
$EndComp
Wire Wire Line
	9350 3950 9100 3950
Wire Wire Line
	9100 3950 9100 4050
$Comp
L power:VDDA #PWR010
U 1 1 603AA02D
P 9900 3850
F 0 "#PWR010" H 9900 3700 50  0001 C CNN
F 1 "VDDA" H 9915 4023 50  0000 C CNN
F 2 "" H 9900 3850 50  0001 C CNN
F 3 "" H 9900 3850 50  0001 C CNN
	1    9900 3850
	1    0    0    -1  
$EndComp
$Comp
L Device:C C?
U 1 1 603AB924
P 9900 4200
AR Path="/60304BBA/603AB924" Ref="C?"  Part="1" 
AR Path="/603AB924" Ref="C6"  Part="1" 
F 0 "C6" H 10015 4246 50  0000 L CNN
F 1 "100n" H 10015 4155 50  0000 L CNN
F 2 "Capacitor_SMD:C_0603_1608Metric" H 9938 4050 50  0001 C CNN
F 3 "~" H 9900 4200 50  0001 C CNN
F 4 "C14663" H 9900 4200 50  0001 C CNN "LCSC"
	1    9900 4200
	1    0    0    -1  
$EndComp
$Comp
L power:GND #PWR011
U 1 1 603ABC32
P 9900 4450
F 0 "#PWR011" H 9900 4200 50  0001 C CNN
F 1 "GND" H 9905 4277 50  0000 C CNN
F 2 "" H 9900 4450 50  0001 C CNN
F 3 "" H 9900 4450 50  0001 C CNN
	1    9900 4450
	1    0    0    -1  
$EndComp
Wire Wire Line
	9900 4450 9900 4350
Wire Wire Line
	9900 3950 9900 4050
Wire Wire Line
	9650 3950 9900 3950
Wire Wire Line
	9900 3950 9900 3850
Connection ~ 9900 3950
$Comp
L power:VDDA #PWR019
U 1 1 603D1BD2
P 3700 1050
F 0 "#PWR019" H 3700 900 50  0001 C CNN
F 1 "VDDA" H 3715 1223 50  0000 C CNN
F 2 "" H 3700 1050 50  0001 C CNN
F 3 "" H 3700 1050 50  0001 C CNN
	1    3700 1050
	1    0    0    -1  
$EndComp
Wire Wire Line
	3700 1050 3700 1250
$Comp
L Device:C C?
U 1 1 603DAA10
P 4850 6750
AR Path="/60304BBA/603DAA10" Ref="C?"  Part="1" 
AR Path="/603DAA10" Ref="C8"  Part="1" 
F 0 "C8" H 4965 6796 50  0000 L CNN
F 1 "100n" H 4965 6705 50  0000 L CNN
F 2 "Capacitor_SMD:C_0603_1608Metric" H 4888 6600 50  0001 C CNN
F 3 "~" H 4850 6750 50  0001 C CNN
F 4 "C14663" H 4850 6750 50  0001 C CNN "LCSC"
	1    4850 6750
	1    0    0    -1  
$EndComp
$Comp
L Device:C C?
U 1 1 603DDE67
P 5950 6750
AR Path="/60304BBA/603DDE67" Ref="C?"  Part="1" 
AR Path="/603DDE67" Ref="C9"  Part="1" 
F 0 "C9" H 6065 6796 50  0000 L CNN
F 1 "100n" H 6065 6705 50  0000 L CNN
F 2 "Capacitor_SMD:C_0603_1608Metric" H 5988 6600 50  0001 C CNN
F 3 "~" H 5950 6750 50  0001 C CNN
F 4 "C14663" H 5950 6750 50  0001 C CNN "LCSC"
	1    5950 6750
	1    0    0    -1  
$EndComp
$Comp
L power:GND #PWR022
U 1 1 603EBB7C
P 4850 7000
F 0 "#PWR022" H 4850 6750 50  0001 C CNN
F 1 "GND" H 4855 6827 50  0000 C CNN
F 2 "" H 4850 7000 50  0001 C CNN
F 3 "" H 4850 7000 50  0001 C CNN
	1    4850 7000
	1    0    0    -1  
$EndComp
Wire Wire Line
	4850 6900 4850 7000
Wire Wire Line
	4850 6600 4850 6500
Connection ~ 4850 6500
Wire Wire Line
	4850 6500 5200 6500
Wire Wire Line
	5950 6600 5950 6500
Connection ~ 5950 6500
Wire Wire Line
	5950 6500 6300 6500
$Comp
L power:GND #PWR026
U 1 1 6040D72D
P 5950 7000
F 0 "#PWR026" H 5950 6750 50  0001 C CNN
F 1 "GND" H 5955 6827 50  0000 C CNN
F 2 "" H 5950 7000 50  0001 C CNN
F 3 "" H 5950 7000 50  0001 C CNN
	1    5950 7000
	1    0    0    -1  
$EndComp
Wire Wire Line
	5950 6900 5950 7000
$Sheet
S 6300 3900 700  1050
U 604A900E
F0 "Interfaces" 50
F1 "Interfaces.sch" 50
F2 "D+" B L 6300 4000 50 
F3 "D-" B L 6300 4100 50 
F4 "DSCLK" I L 6300 4550 50 
F5 "~BRST" I L 6300 4450 50 
F6 "DSO" O L 6300 4650 50 
F7 "DSI" I L 6300 4750 50 
F8 "FREEZE" O L 6300 4250 50 
F9 "~BERR" I L 6300 4850 50 
F10 "STEP" I L 6300 4350 50 
$EndSheet
Wire Wire Line
	6300 4000 5850 4000
Wire Wire Line
	6300 4100 5850 4100
Text Label 5850 4000 0    50   ~ 0
D+
Text Label 5850 4100 0    50   ~ 0
D-
Wire Wire Line
	5850 4550 6300 4550
Wire Wire Line
	5850 4650 6300 4650
Wire Wire Line
	5850 4750 6300 4750
Wire Wire Line
	4200 1950 4650 1950
Wire Wire Line
	5850 4350 6300 4350
Wire Wire Line
	5850 4450 6300 4450
$Comp
L Device:C C?
U 1 1 60AC785B
P 8200 4200
AR Path="/60304BBA/60AC785B" Ref="C?"  Part="1" 
AR Path="/60AC785B" Ref="C21"  Part="1" 
F 0 "C21" H 8315 4246 50  0000 L CNN
F 1 "100n" H 8315 4155 50  0000 L CNN
F 2 "Capacitor_SMD:C_0603_1608Metric" H 8238 4050 50  0001 C CNN
F 3 "~" H 8200 4200 50  0001 C CNN
F 4 "C14663" H 8200 4200 50  0001 C CNN "LCSC"
	1    8200 4200
	1    0    0    -1  
$EndComp
$Comp
L power:GND #PWR084
U 1 1 60AC7865
P 8200 4450
F 0 "#PWR084" H 8200 4200 50  0001 C CNN
F 1 "GND" H 8205 4277 50  0000 C CNN
F 2 "" H 8200 4450 50  0001 C CNN
F 3 "" H 8200 4450 50  0001 C CNN
	1    8200 4450
	1    0    0    -1  
$EndComp
Wire Wire Line
	8200 4450 8200 4350
Wire Wire Line
	8200 3950 8200 4050
$Comp
L Device:C C?
U 1 1 60ACFA25
P 7750 4200
AR Path="/60304BBA/60ACFA25" Ref="C?"  Part="1" 
AR Path="/60ACFA25" Ref="C20"  Part="1" 
F 0 "C20" H 7865 4246 50  0000 L CNN
F 1 "100n" H 7865 4155 50  0000 L CNN
F 2 "Capacitor_SMD:C_0603_1608Metric" H 7788 4050 50  0001 C CNN
F 3 "~" H 7750 4200 50  0001 C CNN
F 4 "C14663" H 7750 4200 50  0001 C CNN "LCSC"
	1    7750 4200
	1    0    0    -1  
$EndComp
$Comp
L power:GND #PWR083
U 1 1 60ACFD19
P 7750 4450
F 0 "#PWR083" H 7750 4200 50  0001 C CNN
F 1 "GND" H 7755 4277 50  0000 C CNN
F 2 "" H 7750 4450 50  0001 C CNN
F 3 "" H 7750 4450 50  0001 C CNN
	1    7750 4450
	1    0    0    -1  
$EndComp
Wire Wire Line
	7750 4450 7750 4350
Wire Wire Line
	7750 3850 7750 3950
Wire Wire Line
	7750 3950 8200 3950
Connection ~ 7750 3950
Wire Wire Line
	7750 3950 7750 4050
Connection ~ 9100 3950
Wire Wire Line
	8650 3950 9100 3950
NoConn ~ 4200 2750
NoConn ~ 4200 4150
NoConn ~ 4200 4250
NoConn ~ 4200 4350
NoConn ~ 4200 4450
$Comp
L power:PWR_FLAG #FLG01
U 1 1 60B8B59C
P 10300 3850
F 0 "#FLG01" H 10300 3925 50  0001 C CNN
F 1 "PWR_FLAG" H 10300 4023 50  0000 C CNN
F 2 "" H 10300 3850 50  0001 C CNN
F 3 "~" H 10300 3850 50  0001 C CNN
	1    10300 3850
	1    0    0    -1  
$EndComp
Wire Wire Line
	9900 3950 10300 3950
Wire Wire Line
	10300 3950 10300 3850
$Comp
L Device:C C?
U 1 1 6044333C
P 8650 4200
AR Path="/60304BBA/6044333C" Ref="C?"  Part="1" 
AR Path="/6044333C" Ref="C22"  Part="1" 
F 0 "C22" H 8765 4246 50  0000 L CNN
F 1 "100n" H 8765 4155 50  0000 L CNN
F 2 "Capacitor_SMD:C_0603_1608Metric" H 8688 4050 50  0001 C CNN
F 3 "~" H 8650 4200 50  0001 C CNN
F 4 "C14663" H 8650 4200 50  0001 C CNN "LCSC"
	1    8650 4200
	1    0    0    -1  
$EndComp
$Comp
L power:GND #PWR063
U 1 1 604434A4
P 8650 4450
F 0 "#PWR063" H 8650 4200 50  0001 C CNN
F 1 "GND" H 8655 4277 50  0000 C CNN
F 2 "" H 8650 4450 50  0001 C CNN
F 3 "" H 8650 4450 50  0001 C CNN
	1    8650 4450
	1    0    0    -1  
$EndComp
Wire Wire Line
	8650 4450 8650 4350
Wire Wire Line
	8650 3950 8650 4050
Wire Wire Line
	8200 3950 8650 3950
Connection ~ 8650 3950
Connection ~ 8200 3950
Wire Wire Line
	4200 3750 4650 3750
Wire Wire Line
	4200 3350 4650 3350
Wire Wire Line
	4200 2150 4650 2150
Wire Wire Line
	4200 2450 4650 2450
Text Label 5850 4650 0    50   ~ 0
DSO
Text Label 5850 4750 0    50   ~ 0
DSI
Text Label 5850 4550 0    50   ~ 0
DSCLK
Text Label 5850 4450 0    50   ~ 0
~BRST
Text Label 5850 4350 0    50   ~ 0
STEP
Text Label 4650 1950 2    50   ~ 0
STEP
Text Label 4650 3750 2    50   ~ 0
~BRST
Text Label 4650 3350 2    50   ~ 0
DSO
Text Label 4650 2150 2    50   ~ 0
DSI
Text Label 4650 2450 2    50   ~ 0
DSCLK
Wire Wire Line
	6200 3150 4200 3150
Wire Wire Line
	4200 2950 6200 2950
NoConn ~ 4200 2850
Wire Wire Line
	4200 2050 4650 2050
Text Label 4650 2050 2    50   ~ 0
FREEZE
Wire Wire Line
	6300 4250 5850 4250
Text Label 5850 4250 0    50   ~ 0
FREEZE
Wire Wire Line
	4200 3450 4650 3450
Text Label 4650 3450 2    50   ~ 0
~BERR
Wire Wire Line
	5850 4850 6300 4850
Text Label 5850 4850 0    50   ~ 0
~BERR
NoConn ~ 4200 3050
Text Notes 5000 7400 0    50   ~ 0
V[mV] = ADC * 7
$EndSCHEMATC
