EESchema Schematic File Version 4
EELAYER 30 0
EELAYER END
$Descr A4 11693 8268
encoding utf-8
Sheet 3 3
Title ""
Date ""
Rev ""
Comp ""
Comment1 ""
Comment2 ""
Comment3 ""
Comment4 ""
$EndDescr
$Comp
L Connector:USB_B_Mini J?
U 1 1 604C966B
P 1650 5900
AR Path="/604C966B" Ref="J?"  Part="1" 
AR Path="/604A900E/604C966B" Ref="J2"  Part="1" 
F 0 "J2" H 1707 6367 50  0000 C CNN
F 1 "USB_B_Mini" H 1707 6276 50  0000 C CNN
F 2 "Connector_USB:USB_Mini-B_Wuerth_65100516121_Horizontal" H 1800 5850 50  0001 C CNN
F 3 "~" H 1800 5850 50  0001 C CNN
F 4 "710-65100516121" H 1650 5900 50  0001 C CNN "Mouser"
F 5 "C428494" H 1650 5900 50  0001 C CNN "LCSC"
	1    1650 5900
	1    0    0    -1  
$EndComp
Wire Wire Line
	1950 5900 2450 5900
$Comp
L power:VBUS #PWR?
U 1 1 604C9672
P 2050 5600
AR Path="/604C9672" Ref="#PWR?"  Part="1" 
AR Path="/604A900E/604C9672" Ref="#PWR055"  Part="1" 
F 0 "#PWR055" H 2050 5450 50  0001 C CNN
F 1 "VBUS" H 2065 5773 50  0000 C CNN
F 2 "" H 2050 5600 50  0001 C CNN
F 3 "" H 2050 5600 50  0001 C CNN
	1    2050 5600
	1    0    0    -1  
$EndComp
Wire Wire Line
	2050 5600 2050 5700
Wire Wire Line
	2050 5700 1950 5700
Wire Wire Line
	1650 6500 1650 6400
Wire Wire Line
	1650 6400 1550 6400
Wire Wire Line
	1550 6400 1550 6300
Connection ~ 1650 6400
Wire Wire Line
	1650 6400 1650 6300
$Comp
L power:GND #PWR?
U 1 1 604C967F
P 1650 6500
AR Path="/604C967F" Ref="#PWR?"  Part="1" 
AR Path="/604A900E/604C967F" Ref="#PWR054"  Part="1" 
F 0 "#PWR054" H 1650 6250 50  0001 C CNN
F 1 "GND" H 1655 6327 50  0000 C CNN
F 2 "" H 1650 6500 50  0001 C CNN
F 3 "" H 1650 6500 50  0001 C CNN
	1    1650 6500
	1    0    0    -1  
$EndComp
Text Label 2050 5900 0    50   ~ 0
cD+
Text Label 2050 6000 0    50   ~ 0
cD-
Wire Wire Line
	2450 6000 1950 6000
$Comp
L Device:R R?
U 1 1 604C9689
P 2700 5750
AR Path="/60304BBA/604C9689" Ref="R?"  Part="1" 
AR Path="/604C9689" Ref="R?"  Part="1" 
AR Path="/604A900E/604C9689" Ref="R24"  Part="1" 
F 0 "R24" V 2493 5750 50  0000 C CNN
F 1 "22" V 2584 5750 50  0000 C CNN
F 2 "Resistor_SMD:R_0402_1005Metric" V 2630 5750 50  0001 C CNN
F 3 "~" H 2700 5750 50  0001 C CNN
F 4 "C25092" H 2700 5750 50  0001 C CNN "LCSC"
	1    2700 5750
	0    1    1    0   
$EndComp
$Comp
L Device:R R?
U 1 1 604C9690
P 2700 6150
AR Path="/60304BBA/604C9690" Ref="R?"  Part="1" 
AR Path="/604C9690" Ref="R?"  Part="1" 
AR Path="/604A900E/604C9690" Ref="R25"  Part="1" 
F 0 "R25" V 2493 6150 50  0000 C CNN
F 1 "22" V 2584 6150 50  0000 C CNN
F 2 "Resistor_SMD:R_0402_1005Metric" V 2630 6150 50  0001 C CNN
F 3 "~" H 2700 6150 50  0001 C CNN
F 4 "C25092" H 2700 6150 50  0001 C CNN "LCSC"
	1    2700 6150
	0    -1   1    0   
$EndComp
Wire Wire Line
	2550 5750 2450 5750
Wire Wire Line
	2450 5750 2450 5900
Wire Wire Line
	2450 6000 2450 6150
Wire Wire Line
	2450 6150 2550 6150
$Comp
L Power_Protection:SRV05-4 U?
U 1 1 604C969B
P 3650 6750
AR Path="/604C969B" Ref="U?"  Part="1" 
AR Path="/604A900E/604C969B" Ref="U6"  Part="1" 
F 0 "U6" H 3850 7250 50  0000 C CNN
F 1 "SRV05-4" H 3950 6250 50  0000 C CNN
F 2 "Package_TO_SOT_SMD:SOT-23-6" H 4350 6300 50  0001 C CNN
F 3 "http://www.onsemi.com/pub/Collateral/SRV05-4-D.PDF" H 3650 6750 50  0001 C CNN
F 4 "C85364" H 3650 6750 50  0001 C CNN "LCSC"
	1    3650 6750
	1    0    0    -1  
$EndComp
Wire Wire Line
	3650 5600 3650 6250
Wire Wire Line
	3650 7350 3650 7250
$Comp
L power:GND #PWR?
U 1 1 604C96A9
P 3650 7350
AR Path="/604C96A9" Ref="#PWR?"  Part="1" 
AR Path="/604A900E/604C96A9" Ref="#PWR057"  Part="1" 
F 0 "#PWR057" H 3650 7100 50  0001 C CNN
F 1 "GND" H 3655 7177 50  0000 C CNN
F 2 "" H 3650 7350 50  0001 C CNN
F 3 "" H 3650 7350 50  0001 C CNN
	1    3650 7350
	1    0    0    -1  
$EndComp
Text HLabel 4500 5750 2    50   BiDi ~ 0
D+
Text HLabel 4500 6150 2    50   BiDi ~ 0
D-
Text HLabel 1050 3900 0    50   Input ~ 0
DSCLK
Text HLabel 1050 4700 0    50   Input ~ 0
DSI
Text Label 6250 4700 2    50   ~ 0
~IFETCH~_DSI
Text Label 1050 3550 0    50   ~ 0
FREEZE
$Comp
L 74xx:74LS126 U9
U 1 1 603FED60
P 5250 4700
F 0 "U9" H 5250 4925 50  0000 C CNN
F 1 "74AHC126" H 5250 5016 50  0000 C CNN
F 2 "Package_SO:SOIC-14_3.9x8.7mm_P1.27mm" H 5250 4700 50  0001 C CNN
F 3 "http://www.ti.com/lit/gpn/sn74LS126" H 5250 4700 50  0001 C CNN
F 4 "C554224" H 5250 4700 50  0001 C CNN "LCSC"
	1    5250 4700
	1    0    0    1   
$EndComp
Wire Wire Line
	1050 4700 4950 4700
Wire Wire Line
	5250 4450 5250 4350
Wire Wire Line
	5550 4700 6250 4700
$Comp
L 74xx:74LS126 U9
U 2 1 6042CA32
P 5250 3900
F 0 "U9" H 5250 4125 50  0000 C CNN
F 1 "74AHC126" H 5250 4216 50  0000 C CNN
F 2 "Package_SO:SOIC-14_3.9x8.7mm_P1.27mm" H 5250 3900 50  0001 C CNN
F 3 "http://www.ti.com/lit/gpn/sn74LS126" H 5250 3900 50  0001 C CNN
F 4 "C554224" H 5250 3900 50  0001 C CNN "LCSC"
	2    5250 3900
	1    0    0    1   
$EndComp
Wire Wire Line
	1050 3900 4950 3900
Wire Wire Line
	5250 3650 5250 3550
Wire Wire Line
	5250 4350 4850 4350
Wire Wire Line
	4850 4350 4850 3550
Connection ~ 4850 3550
Wire Wire Line
	4850 3550 5250 3550
Wire Wire Line
	5650 3900 5550 3900
$Comp
L power:VCC #PWR?
U 1 1 6080FD8D
P 8400 3600
AR Path="/6080FD8D" Ref="#PWR?"  Part="1" 
AR Path="/604A900E/6080FD8D" Ref="#PWR070"  Part="1" 
F 0 "#PWR070" H 8400 3450 50  0001 C CNN
F 1 "VCC" H 8415 3773 50  0000 C CNN
F 2 "" H 8400 3600 50  0001 C CNN
F 3 "" H 8400 3600 50  0001 C CNN
	1    8400 3600
	1    0    0    -1  
$EndComp
$Comp
L Device:C C?
U 1 1 6081AC90
P 7850 3850
AR Path="/60304BBA/6081AC90" Ref="C?"  Part="1" 
AR Path="/6081AC90" Ref="C?"  Part="1" 
AR Path="/604A900E/6081AC90" Ref="C18"  Part="1" 
F 0 "C18" H 7965 3896 50  0000 L CNN
F 1 "100n" H 7965 3805 50  0000 L CNN
F 2 "Capacitor_SMD:C_0603_1608Metric" H 7888 3700 50  0001 C CNN
F 3 "~" H 7850 3850 50  0001 C CNN
F 4 "C14663" H 7850 3850 50  0001 C CNN "LCSC"
	1    7850 3850
	1    0    0    -1  
$EndComp
$Comp
L power:GND #PWR?
U 1 1 6081B148
P 7850 4100
AR Path="/6081B148" Ref="#PWR?"  Part="1" 
AR Path="/604A900E/6081B148" Ref="#PWR073"  Part="1" 
F 0 "#PWR073" H 7850 3850 50  0001 C CNN
F 1 "GND" H 7855 3927 50  0000 C CNN
F 2 "" H 7850 4100 50  0001 C CNN
F 3 "" H 7850 4100 50  0001 C CNN
	1    7850 4100
	1    0    0    -1  
$EndComp
Wire Wire Line
	7850 4100 7850 4000
$Comp
L Device:C C?
U 1 1 6082410D
P 8400 3850
AR Path="/60304BBA/6082410D" Ref="C?"  Part="1" 
AR Path="/6082410D" Ref="C?"  Part="1" 
AR Path="/604A900E/6082410D" Ref="C19"  Part="1" 
F 0 "C19" H 8515 3896 50  0000 L CNN
F 1 "100n" H 8515 3805 50  0000 L CNN
F 2 "Capacitor_SMD:C_0603_1608Metric" H 8438 3700 50  0001 C CNN
F 3 "~" H 8400 3850 50  0001 C CNN
F 4 "C14663" H 8400 3850 50  0001 C CNN "LCSC"
	1    8400 3850
	1    0    0    -1  
$EndComp
$Comp
L power:GND #PWR?
U 1 1 608245DB
P 8400 4100
AR Path="/608245DB" Ref="#PWR?"  Part="1" 
AR Path="/604A900E/608245DB" Ref="#PWR074"  Part="1" 
F 0 "#PWR074" H 8400 3850 50  0001 C CNN
F 1 "GND" H 8405 3927 50  0000 C CNN
F 2 "" H 8400 4100 50  0001 C CNN
F 3 "" H 8400 4100 50  0001 C CNN
	1    8400 4100
	1    0    0    -1  
$EndComp
Wire Wire Line
	8400 4100 8400 4000
Wire Wire Line
	8400 3600 8400 3700
$Comp
L 74xx:74LS126 U9
U 5 1 609F8606
P 5750 6750
F 0 "U9" H 5980 6796 50  0000 L CNN
F 1 "74AHC126" H 5980 6705 50  0000 L CNN
F 2 "Package_SO:SOIC-14_3.9x8.7mm_P1.27mm" H 5750 6750 50  0001 C CNN
F 3 "http://www.ti.com/lit/gpn/sn74LS126" H 5750 6750 50  0001 C CNN
F 4 "C554224" H 5750 6750 50  0001 C CNN "LCSC"
	5    5750 6750
	1    0    0    -1  
$EndComp
Wire Wire Line
	5750 6150 5750 6250
$Comp
L power:GND #PWR?
U 1 1 60A11C4E
P 5750 7350
AR Path="/60A11C4E" Ref="#PWR?"  Part="1" 
AR Path="/604A900E/60A11C4E" Ref="#PWR082"  Part="1" 
F 0 "#PWR082" H 5750 7100 50  0001 C CNN
F 1 "GND" H 5755 7177 50  0000 C CNN
F 2 "" H 5750 7350 50  0001 C CNN
F 3 "" H 5750 7350 50  0001 C CNN
	1    5750 7350
	1    0    0    -1  
$EndComp
Wire Wire Line
	5750 7350 5750 7250
NoConn ~ 1950 6100
NoConn ~ 4150 6650
NoConn ~ 3150 6850
Wire Wire Line
	7850 3600 7850 3700
$Comp
L power:+VSW #PWR?
U 1 1 61DCD6C2
P 5750 6150
AR Path="/61DCD6C2" Ref="#PWR?"  Part="1" 
AR Path="/604A900E/61DCD6C2" Ref="#PWR050"  Part="1" 
F 0 "#PWR050" H 5750 6000 50  0001 C CNN
F 1 "+VSW" H 5765 6323 50  0000 C CNN
F 2 "" H 5750 6150 50  0001 C CNN
F 3 "" H 5750 6150 50  0001 C CNN
	1    5750 6150
	1    0    0    -1  
$EndComp
$Comp
L power:+VSW #PWR?
U 1 1 61DDBC93
P 7850 3600
AR Path="/61DDBC93" Ref="#PWR?"  Part="1" 
AR Path="/604A900E/61DDBC93" Ref="#PWR049"  Part="1" 
F 0 "#PWR049" H 7850 3450 50  0001 C CNN
F 1 "+VSW" H 7865 3773 50  0000 C CNN
F 2 "" H 7850 3600 50  0001 C CNN
F 3 "" H 7850 3600 50  0001 C CNN
	1    7850 3600
	1    0    0    -1  
$EndComp
Text Notes 2050 4400 0    50   ~ 0
Note: AHC126 is used so it can be supplied with VSW and\nprevent driving BDM when there is no target power supply.\nAlternatively VHC can be used instead of AHC.
Wire Wire Line
	10550 2000 9100 2000
Text Label 10550 2000 2    50   ~ 0
~BKPT~_DSCLK
Text Label 10550 2100 2    50   ~ 0
FREEZE
Text Label 10550 2300 2    50   ~ 0
DSO
Text Label 10550 2200 2    50   ~ 0
~IFETCH~_DSI
Text HLabel 10650 2300 2    50   Output ~ 0
DSO
$Comp
L Device:R R?
U 1 1 6032BCA8
P 9200 1750
AR Path="/60304BBA/6032BCA8" Ref="R?"  Part="1" 
AR Path="/6032BCA8" Ref="R?"  Part="1" 
AR Path="/604A900E/6032BCA8" Ref="R27"  Part="1" 
F 0 "R27" H 9270 1796 50  0000 L CNN
F 1 "100k" H 9270 1705 50  0000 L CNN
F 2 "Resistor_SMD:R_0603_1608Metric" V 9130 1750 50  0001 C CNN
F 3 "~" H 9200 1750 50  0001 C CNN
F 4 "C25803" H 9200 1750 50  0001 C CNN "LCSC"
	1    9200 1750
	1    0    0    -1  
$EndComp
$Comp
L Device:R R?
U 1 1 60340F91
P 9900 1750
AR Path="/60304BBA/60340F91" Ref="R?"  Part="1" 
AR Path="/60340F91" Ref="R?"  Part="1" 
AR Path="/604A900E/60340F91" Ref="R28"  Part="1" 
F 0 "R28" H 9970 1796 50  0000 L CNN
F 1 "100k" H 9970 1705 50  0000 L CNN
F 2 "Resistor_SMD:R_0603_1608Metric" V 9830 1750 50  0001 C CNN
F 3 "~" H 9900 1750 50  0001 C CNN
F 4 "C25803" H 9900 1750 50  0001 C CNN "LCSC"
	1    9900 1750
	1    0    0    -1  
$EndComp
Connection ~ 9900 2100
Wire Wire Line
	9100 2300 9200 2300
Connection ~ 9200 2300
Wire Wire Line
	9200 2300 10650 2300
Wire Wire Line
	9100 2200 9550 2200
Wire Wire Line
	9200 1900 9200 2300
Wire Wire Line
	9900 1900 9900 2100
$Comp
L power:+VSW #PWR?
U 1 1 6035BC71
P 9200 1500
AR Path="/6035BC71" Ref="#PWR?"  Part="1" 
AR Path="/604A900E/6035BC71" Ref="#PWR0101"  Part="1" 
F 0 "#PWR0101" H 9200 1350 50  0001 C CNN
F 1 "+VSW" H 9215 1673 50  0000 C CNN
F 2 "" H 9200 1500 50  0001 C CNN
F 3 "" H 9200 1500 50  0001 C CNN
	1    9200 1500
	1    0    0    -1  
$EndComp
Wire Wire Line
	9200 1500 9200 1600
$Comp
L power:+VSW #PWR?
U 1 1 6035FE24
P 9900 1500
AR Path="/6035FE24" Ref="#PWR?"  Part="1" 
AR Path="/604A900E/6035FE24" Ref="#PWR0102"  Part="1" 
F 0 "#PWR0102" H 9900 1350 50  0001 C CNN
F 1 "+VSW" H 9915 1673 50  0000 C CNN
F 2 "" H 9900 1500 50  0001 C CNN
F 3 "" H 9900 1500 50  0001 C CNN
	1    9900 1500
	1    0    0    -1  
$EndComp
Wire Wire Line
	9900 1500 9900 1600
$Comp
L Device:R R?
U 1 1 6054ECAB
P 9550 1750
AR Path="/60304BBA/6054ECAB" Ref="R?"  Part="1" 
AR Path="/6054ECAB" Ref="R?"  Part="1" 
AR Path="/604A900E/6054ECAB" Ref="R31"  Part="1" 
F 0 "R31" H 9620 1796 50  0000 L CNN
F 1 "100k" H 9620 1705 50  0000 L CNN
F 2 "Resistor_SMD:R_0603_1608Metric" V 9480 1750 50  0001 C CNN
F 3 "~" H 9550 1750 50  0001 C CNN
F 4 "C25803" H 9550 1750 50  0001 C CNN "LCSC"
	1    9550 1750
	1    0    0    -1  
$EndComp
$Comp
L power:+VSW #PWR?
U 1 1 6054EF9E
P 9550 1500
AR Path="/6054EF9E" Ref="#PWR?"  Part="1" 
AR Path="/604A900E/6054EF9E" Ref="#PWR064"  Part="1" 
F 0 "#PWR064" H 9550 1350 50  0001 C CNN
F 1 "+VSW" H 9565 1673 50  0000 C CNN
F 2 "" H 9550 1500 50  0001 C CNN
F 3 "" H 9550 1500 50  0001 C CNN
	1    9550 1500
	1    0    0    -1  
$EndComp
Wire Wire Line
	9550 1500 9550 1600
Wire Wire Line
	9100 2100 9900 2100
Wire Wire Line
	9550 1900 9550 2200
Connection ~ 9550 2200
Wire Wire Line
	9550 2200 10550 2200
Text HLabel 10650 2100 2    50   Output ~ 0
FREEZE
Wire Wire Line
	9900 2100 10650 2100
Text HLabel 9650 1000 2    50   Input ~ 0
~BERR
Text Label 9600 1000 2    50   ~ 0
~BERR
Wire Wire Line
	8500 1900 8500 1000
Wire Wire Line
	8400 1900 8500 1900
Wire Wire Line
	7300 1900 7300 2200
Wire Wire Line
	7300 1500 7300 1600
$Comp
L power:+VSW #PWR?
U 1 1 60380C3F
P 7300 1500
AR Path="/60380C3F" Ref="#PWR?"  Part="1" 
AR Path="/604A900E/60380C3F" Ref="#PWR0103"  Part="1" 
F 0 "#PWR0103" H 7300 1350 50  0001 C CNN
F 1 "+VSW" H 7315 1673 50  0000 C CNN
F 2 "" H 7300 1500 50  0001 C CNN
F 3 "" H 7300 1500 50  0001 C CNN
	1    7300 1500
	1    0    0    -1  
$EndComp
Wire Wire Line
	7300 2200 7900 2200
NoConn ~ 7900 1900
Wire Wire Line
	8400 2300 8700 2300
Wire Wire Line
	8700 2200 8400 2200
Wire Wire Line
	8400 2100 8700 2100
Wire Wire Line
	8700 2000 8400 2000
$Comp
L Device:R_Pack04 RN1
U 1 1 60A6F2D0
P 8900 2200
F 0 "RN1" V 8483 2200 50  0000 C CNN
F 1 "33" V 8574 2200 50  0000 C CNN
F 2 "Resistor_SMD:R_Array_Convex_4x0402" V 9175 2200 50  0001 C CNN
F 3 "~" H 8900 2200 50  0001 C CNN
F 4 "C25501" H 8900 2200 50  0001 C CNN "LCSC"
	1    8900 2200
	0    -1   1    0   
$EndComp
Text Label 7000 2200 0    50   ~ 0
~BRST
Wire Wire Line
	7300 2800 7300 2700
$Comp
L power:GND #PWR?
U 1 1 60844A50
P 7300 2800
AR Path="/60844A50" Ref="#PWR?"  Part="1" 
AR Path="/604A900E/60844A50" Ref="#PWR075"  Part="1" 
F 0 "#PWR075" H 7300 2550 50  0001 C CNN
F 1 "GND" H 7305 2627 50  0000 C CNN
F 2 "" H 7300 2800 50  0001 C CNN
F 3 "" H 7300 2800 50  0001 C CNN
	1    7300 2800
	1    0    0    -1  
$EndComp
Wire Wire Line
	7300 2200 6900 2200
Connection ~ 7300 2200
Wire Wire Line
	7300 2400 7300 2200
$Comp
L Device:C C?
U 1 1 6082AE22
P 7300 2550
AR Path="/60304BBA/6082AE22" Ref="C?"  Part="1" 
AR Path="/6082AE22" Ref="C?"  Part="1" 
AR Path="/604A900E/6082AE22" Ref="C15"  Part="1" 
F 0 "C15" H 7415 2596 50  0000 L CNN
F 1 "1n" H 7415 2505 50  0000 L CNN
F 2 "Capacitor_SMD:C_0603_1608Metric" H 7338 2400 50  0001 C CNN
F 3 "~" H 7300 2550 50  0001 C CNN
F 4 "C1588" H 7300 2550 50  0001 C CNN "LCSC"
	1    7300 2550
	1    0    0    -1  
$EndComp
$Comp
L Device:R R?
U 1 1 6038FAD9
P 7300 1750
AR Path="/60304BBA/6038FAD9" Ref="R?"  Part="1" 
AR Path="/6038FAD9" Ref="R?"  Part="1" 
AR Path="/604A900E/6038FAD9" Ref="R26"  Part="1" 
F 0 "R26" H 7370 1796 50  0000 L CNN
F 1 "100k" H 7370 1705 50  0000 L CNN
F 2 "Resistor_SMD:R_0603_1608Metric" V 7230 1750 50  0001 C CNN
F 3 "~" H 7300 1750 50  0001 C CNN
F 4 "C25803" H 7300 1750 50  0001 C CNN "LCSC"
	1    7300 1750
	1    0    0    -1  
$EndComp
Text HLabel 6900 2200 0    50   Input ~ 0
~BRST
Wire Wire Line
	7700 2300 7900 2300
Wire Wire Line
	7700 1500 7700 2300
$Comp
L power:+VSW #PWR?
U 1 1 604AA433
P 7700 1500
AR Path="/604AA433" Ref="#PWR?"  Part="1" 
AR Path="/604A900E/604AA433" Ref="#PWR058"  Part="1" 
F 0 "#PWR058" H 7700 1350 50  0001 C CNN
F 1 "+VSW" H 7715 1673 50  0000 C CNN
F 2 "" H 7700 1500 50  0001 C CNN
F 3 "" H 7700 1500 50  0001 C CNN
	1    7700 1500
	1    0    0    -1  
$EndComp
Wire Wire Line
	7800 2100 7800 2400
Connection ~ 7800 2100
Wire Wire Line
	7900 2100 7800 2100
Wire Wire Line
	7800 2000 7800 2100
Wire Wire Line
	7900 2000 7800 2000
$Comp
L power:GND #PWR?
U 1 1 604AA41E
P 7800 2400
AR Path="/604AA41E" Ref="#PWR?"  Part="1" 
AR Path="/604A900E/604AA41E" Ref="#PWR059"  Part="1" 
F 0 "#PWR059" H 7800 2150 50  0001 C CNN
F 1 "GND" H 7805 2227 50  0000 C CNN
F 2 "" H 7800 2400 50  0001 C CNN
F 3 "" H 7800 2400 50  0001 C CNN
	1    7800 2400
	1    0    0    -1  
$EndComp
$Comp
L Connector_Generic:Conn_02x05_Odd_Even J?
U 1 1 604AA418
P 8100 2100
AR Path="/604AA418" Ref="J?"  Part="1" 
AR Path="/604A900E/604AA418" Ref="J3"  Part="1" 
F 0 "J3" H 8150 2517 50  0000 C CNN
F 1 "BDM" H 8150 2426 50  0000 C CNN
F 2 "Connector_IDC:IDC-Header_2x05_P2.54mm_Vertical" H 8100 2100 50  0001 C CNN
F 3 "~" H 8100 2100 50  0001 C CNN
	1    8100 2100
	1    0    0    -1  
$EndComp
$Comp
L 74xGxx:74AUC1G74 U8
U 1 1 6058CECD
P 4300 1850
F 0 "U8" H 4400 2050 50  0000 C CNN
F 1 "74LVC1G74" H 4550 1650 50  0000 C CNN
F 2 "Package_SO:VSSOP-8_2.3x2mm_P0.5mm" H 4300 1850 50  0001 C CNN
F 3 "http://www.ti.com/lit/sg/scyt129e/scyt129e.pdf" H 4300 1850 50  0001 C CNN
F 4 "C503431" H 4300 1850 50  0001 C CNN "LCSC"
	1    4300 1850
	1    0    0    -1  
$EndComp
$Comp
L power:VCC #PWR062
U 1 1 605BFA7A
P 3950 1650
F 0 "#PWR062" H 3950 1500 50  0001 C CNN
F 1 "VCC" H 3965 1823 50  0000 C CNN
F 2 "" H 3950 1650 50  0001 C CNN
F 3 "" H 3950 1650 50  0001 C CNN
	1    3950 1650
	1    0    0    -1  
$EndComp
Wire Wire Line
	4050 1750 3950 1750
Wire Wire Line
	3950 1750 3950 1650
Text HLabel 1050 2200 0    50   Input ~ 0
STEP
Text Label 1050 1850 0    50   ~ 0
~IFETCH~_DSI
Wire Wire Line
	6250 1950 5650 1950
Text Label 6250 1950 2    50   ~ 0
~BKPT~_DSCLK
$Comp
L 74xx:74LS126 U9
U 3 1 6045F11F
P 5250 1950
F 0 "U9" H 5250 2267 50  0000 C CNN
F 1 "74AHC126" H 5250 2176 50  0000 C CNN
F 2 "Package_SO:SOIC-14_3.9x8.7mm_P1.27mm" H 5250 1950 50  0001 C CNN
F 3 "http://www.ti.com/lit/gpn/sn74LS126" H 5250 1950 50  0001 C CNN
F 4 "C554224" H 5250 1950 50  0001 C CNN "LCSC"
	3    5250 1950
	1    0    0    -1  
$EndComp
Wire Wire Line
	4950 1950 4550 1950
Wire Wire Line
	5550 1950 5650 1950
Wire Wire Line
	5650 1950 5650 3900
Connection ~ 5650 1950
Wire Wire Line
	5250 2200 5250 2650
Text Label 4650 1950 0    50   ~ 0
~BKPT~
Text Label 3750 1950 0    50   ~ 0
IFETCH
Wire Wire Line
	4300 2100 4300 2200
NoConn ~ 4550 1750
Text Label 2350 2650 0    50   ~ 0
~FREEZE
$Comp
L 74xx:74HC14 U?
U 6 1 603A91D4
P 1850 2650
AR Path="/60304BBA/603A91D4" Ref="U?"  Part="1" 
AR Path="/604A900E/603A91D4" Ref="U5"  Part="6" 
F 0 "U5" H 1850 2967 50  0000 C CNN
F 1 "74HC14" H 1850 2876 50  0000 C CNN
F 2 "Package_SO:SOIC-14_3.9x8.7mm_P1.27mm" H 1850 2650 50  0001 C CNN
F 3 "http://www.ti.com/lit/gpn/sn74HC14" H 1850 2650 50  0001 C CNN
F 4 "C5605" H 1850 2650 50  0001 C CNN "LCSC"
	6    1850 2650
	1    0    0    -1  
$EndComp
$Comp
L 74xx:74LS08 U?
U 4 1 6057C3BB
P 9800 3850
AR Path="/60304BBA/6057C3BB" Ref="U?"  Part="2" 
AR Path="/604A900E/6057C3BB" Ref="U4"  Part="4" 
F 0 "U4" H 9800 4175 50  0000 C CNN
F 1 "74HC08" H 9800 4084 50  0000 C CNN
F 2 "Package_SO:SOIC-14_3.9x8.7mm_P1.27mm" H 9800 3850 50  0001 C CNN
F 3 "http://www.ti.com/lit/gpn/sn74LS08" H 9800 3850 50  0001 C CNN
F 4 "C5593" H 9800 3850 50  0001 C CNN "LCSC"
	4    9800 3850
	1    0    0    -1  
$EndComp
Text Notes 1750 3150 0    50   ~ 0
Note: ~IFETCH~ is faster than ~FREEZE~ to prevent\nold DSI from triggering ~BKPT~ too soon.\nHaving NOT after AND enables that.
Text Label 8650 5700 2    50   ~ 0
~BRST
$Comp
L Power_Protection:SRV05-4 U?
U 1 1 6183ABEC
P 9900 5600
AR Path="/6183ABEC" Ref="U?"  Part="1" 
AR Path="/604A900E/6183ABEC" Ref="U11"  Part="1" 
F 0 "U11" H 10100 6100 50  0000 C CNN
F 1 "SRV05-4" H 10200 5100 50  0000 C CNN
F 2 "Package_TO_SOT_SMD:SOT-23-6" H 10600 5150 50  0001 C CNN
F 3 "http://www.onsemi.com/pub/Collateral/SRV05-4-D.PDF" H 9900 5600 50  0001 C CNN
F 4 "C85364" H 9900 5600 50  0001 C CNN "LCSC"
	1    9900 5600
	1    0    0    -1  
$EndComp
$Comp
L power:GND #PWR?
U 1 1 61851DEF
P 9900 6200
AR Path="/61851DEF" Ref="#PWR?"  Part="1" 
AR Path="/604A900E/61851DEF" Ref="#PWR041"  Part="1" 
F 0 "#PWR041" H 9900 5950 50  0001 C CNN
F 1 "GND" H 9905 6027 50  0000 C CNN
F 2 "" H 9900 6200 50  0001 C CNN
F 3 "" H 9900 6200 50  0001 C CNN
	1    9900 6200
	1    0    0    -1  
$EndComp
Wire Wire Line
	9900 6100 9900 6200
Wire Wire Line
	8000 5700 8650 5700
Wire Wire Line
	10400 5500 11050 5500
Text Label 11050 5500 2    50   ~ 0
~xBERR
NoConn ~ 7000 5500
NoConn ~ 10400 5700
$Comp
L Power_Protection:SRV05-4 U?
U 1 1 604AA43C
P 7500 5600
AR Path="/604AA43C" Ref="U?"  Part="1" 
AR Path="/604A900E/604AA43C" Ref="U7"  Part="1" 
F 0 "U7" H 7700 6100 50  0000 C CNN
F 1 "SRV05-4" H 7800 5100 50  0000 C CNN
F 2 "Package_TO_SOT_SMD:SOT-23-6" H 8200 5150 50  0001 C CNN
F 3 "http://www.onsemi.com/pub/Collateral/SRV05-4-D.PDF" H 7500 5600 50  0001 C CNN
F 4 "C85364" H 7500 5600 50  0001 C CNN "LCSC"
	1    7500 5600
	1    0    0    -1  
$EndComp
$Comp
L power:+VSW #PWR?
U 1 1 604AA442
P 7500 5000
AR Path="/604AA442" Ref="#PWR?"  Part="1" 
AR Path="/604A900E/604AA442" Ref="#PWR060"  Part="1" 
F 0 "#PWR060" H 7500 4850 50  0001 C CNN
F 1 "+VSW" H 7515 5173 50  0000 C CNN
F 2 "" H 7500 5000 50  0001 C CNN
F 3 "" H 7500 5000 50  0001 C CNN
	1    7500 5000
	1    0    0    -1  
$EndComp
Wire Wire Line
	7500 5000 7500 5100
$Comp
L power:GND #PWR?
U 1 1 604AA449
P 7500 6200
AR Path="/604AA449" Ref="#PWR?"  Part="1" 
AR Path="/604A900E/604AA449" Ref="#PWR061"  Part="1" 
F 0 "#PWR061" H 7500 5950 50  0001 C CNN
F 1 "GND" H 7505 6027 50  0000 C CNN
F 2 "" H 7500 6200 50  0001 C CNN
F 3 "" H 7500 6200 50  0001 C CNN
	1    7500 6200
	1    0    0    -1  
$EndComp
Wire Wire Line
	7500 6200 7500 6100
Wire Wire Line
	8000 5500 8650 5500
Text Label 8650 5500 2    50   ~ 0
DSO
Wire Wire Line
	7000 5700 6350 5700
Wire Wire Line
	9400 5700 8750 5700
Text Label 6350 5700 0    50   ~ 0
~IFETCH~_DSI
Text Label 8750 5700 0    50   ~ 0
FREEZE
Wire Wire Line
	9400 5500 8750 5500
Text Label 8750 5500 0    50   ~ 0
~BKPT~_DSCLK
$Comp
L power:+VSW #PWR?
U 1 1 6213FA7A
P 9900 5000
AR Path="/6213FA7A" Ref="#PWR?"  Part="1" 
AR Path="/604A900E/6213FA7A" Ref="#PWR065"  Part="1" 
F 0 "#PWR065" H 9900 4850 50  0001 C CNN
F 1 "+VSW" H 9915 5173 50  0000 C CNN
F 2 "" H 9900 5000 50  0001 C CNN
F 3 "" H 9900 5000 50  0001 C CNN
	1    9900 5000
	1    0    0    -1  
$EndComp
Wire Wire Line
	9900 5000 9900 5100
Text Notes 1650 850  0    50   ~ 0
Note: STEP should be disabled when there is no supply
Wire Wire Line
	4300 1200 4300 1300
$Comp
L Device:R R?
U 1 1 62234E11
P 4300 1050
AR Path="/60304BBA/62234E11" Ref="R?"  Part="1" 
AR Path="/62234E11" Ref="R?"  Part="1" 
AR Path="/604A900E/62234E11" Ref="R18"  Part="1" 
F 0 "R18" H 4230 1004 50  0000 R CNN
F 1 "10k" H 4230 1095 50  0000 R CNN
F 2 "Resistor_SMD:R_0603_1608Metric" V 4230 1050 50  0001 C CNN
F 3 "~" H 4300 1050 50  0001 C CNN
F 4 "C25804" H 4300 1050 50  0001 C CNN "LCSC"
	1    4300 1050
	-1   0    0    1   
$EndComp
Wire Wire Line
	4300 800  4300 900 
Text Label 1050 1300 0    50   ~ 0
~BRST
Connection ~ 4300 1300
Wire Wire Line
	4300 1300 4300 1600
$Comp
L power:+VSW #PWR?
U 1 1 6228B338
P 4300 800
AR Path="/6228B338" Ref="#PWR?"  Part="1" 
AR Path="/604A900E/6228B338" Ref="#PWR044"  Part="1" 
F 0 "#PWR044" H 4300 650 50  0001 C CNN
F 1 "+VSW" H 4315 973 50  0000 C CNN
F 2 "" H 4300 800 50  0001 C CNN
F 3 "" H 4300 800 50  0001 C CNN
	1    4300 800 
	1    0    0    -1  
$EndComp
$Comp
L 74xx:74HC14 U?
U 4 1 603946C6
P 3350 1950
AR Path="/60304BBA/603946C6" Ref="U?"  Part="1" 
AR Path="/604A900E/603946C6" Ref="U5"  Part="4" 
F 0 "U5" H 3350 2267 50  0000 C CNN
F 1 "74HC14" H 3350 2176 50  0000 C CNN
F 2 "Package_SO:SOIC-14_3.9x8.7mm_P1.27mm" H 3350 1950 50  0001 C CNN
F 3 "http://www.ti.com/lit/gpn/sn74HC14" H 3350 1950 50  0001 C CNN
F 4 "C5605" H 3350 1950 50  0001 C CNN "LCSC"
	4    3350 1950
	1    0    0    -1  
$EndComp
Wire Wire Line
	1050 1850 2350 1850
Wire Wire Line
	4050 1950 3650 1950
$Comp
L 74xx:74LS08 U?
U 3 1 6057B2C2
P 2650 1950
AR Path="/60304BBA/6057B2C2" Ref="U?"  Part="2" 
AR Path="/604A900E/6057B2C2" Ref="U4"  Part="3" 
F 0 "U4" H 2650 2275 50  0000 C CNN
F 1 "74HC08" H 2650 2184 50  0000 C CNN
F 2 "Package_SO:SOIC-14_3.9x8.7mm_P1.27mm" H 2650 1950 50  0001 C CNN
F 3 "http://www.ti.com/lit/gpn/sn74LS08" H 2650 1950 50  0001 C CNN
F 4 "C5593" H 2650 1950 50  0001 C CNN "LCSC"
	3    2650 1950
	1    0    0    -1  
$EndComp
Wire Wire Line
	2250 2050 2350 2050
Connection ~ 2250 2650
Wire Wire Line
	2250 2050 2250 2650
$Comp
L power:GND #PWR?
U 1 1 6218B7B9
P 1150 2750
AR Path="/6218B7B9" Ref="#PWR?"  Part="1" 
AR Path="/604A900E/6218B7B9" Ref="#PWR043"  Part="1" 
F 0 "#PWR043" H 1150 2500 50  0001 C CNN
F 1 "GND" H 1155 2577 50  0000 C CNN
F 2 "" H 1150 2750 50  0001 C CNN
F 3 "" H 1150 2750 50  0001 C CNN
	1    1150 2750
	1    0    0    -1  
$EndComp
Wire Wire Line
	1150 2750 1150 2650
Wire Wire Line
	1050 2200 1150 2200
Wire Wire Line
	1800 2200 4300 2200
Connection ~ 1800 2200
$Comp
L Device:R R?
U 1 1 6073112D
P 1150 2500
AR Path="/60304BBA/6073112D" Ref="R?"  Part="1" 
AR Path="/6073112D" Ref="R?"  Part="1" 
AR Path="/604A900E/6073112D" Ref="R29"  Part="1" 
F 0 "R29" H 1080 2454 50  0000 R CNN
F 1 "10k" H 1080 2545 50  0000 R CNN
F 2 "Resistor_SMD:R_0603_1608Metric" V 1080 2500 50  0001 C CNN
F 3 "~" H 1150 2500 50  0001 C CNN
F 4 "C25804" H 1150 2500 50  0001 C CNN "LCSC"
	1    1150 2500
	-1   0    0    1   
$EndComp
Wire Wire Line
	1150 2350 1150 2200
Wire Wire Line
	1050 1300 1500 1300
Wire Wire Line
	2100 1300 4300 1300
Wire Wire Line
	1800 1550 1800 2200
$Comp
L 74xx:74LS126 U9
U 4 1 6053F0CC
P 1800 1300
F 0 "U9" H 1800 1525 50  0000 C CNN
F 1 "74AHC126" H 1800 1616 50  0000 C CNN
F 2 "Package_SO:SOIC-14_3.9x8.7mm_P1.27mm" H 1800 1300 50  0001 C CNN
F 3 "http://www.ti.com/lit/gpn/sn74LS126" H 1800 1300 50  0001 C CNN
F 4 "C554224" H 1800 1300 50  0001 C CNN "LCSC"
	4    1800 1300
	1    0    0    -1  
$EndComp
Wire Wire Line
	3050 1950 2950 1950
Wire Wire Line
	2250 2650 5250 2650
Connection ~ 1150 2200
Wire Wire Line
	1150 2200 1800 2200
Wire Wire Line
	2150 2650 2250 2650
Wire Wire Line
	1050 3550 1450 3550
Wire Wire Line
	1550 2650 1450 2650
Wire Wire Line
	1450 2650 1450 3550
Connection ~ 1450 3550
Wire Wire Line
	1450 3550 4850 3550
$Comp
L Device:C C?
U 1 1 62697BF0
P 7300 3850
AR Path="/60304BBA/62697BF0" Ref="C?"  Part="1" 
AR Path="/62697BF0" Ref="C?"  Part="1" 
AR Path="/604A900E/62697BF0" Ref="C12"  Part="1" 
F 0 "C12" H 7415 3896 50  0000 L CNN
F 1 "100n" H 7415 3805 50  0000 L CNN
F 2 "Capacitor_SMD:C_0603_1608Metric" H 7338 3700 50  0001 C CNN
F 3 "~" H 7300 3850 50  0001 C CNN
F 4 "C14663" H 7300 3850 50  0001 C CNN "LCSC"
	1    7300 3850
	1    0    0    -1  
$EndComp
$Comp
L power:GND #PWR?
U 1 1 626981B2
P 7300 4100
AR Path="/626981B2" Ref="#PWR?"  Part="1" 
AR Path="/604A900E/626981B2" Ref="#PWR066"  Part="1" 
F 0 "#PWR066" H 7300 3850 50  0001 C CNN
F 1 "GND" H 7305 3927 50  0000 C CNN
F 2 "" H 7300 4100 50  0001 C CNN
F 3 "" H 7300 4100 50  0001 C CNN
	1    7300 4100
	1    0    0    -1  
$EndComp
Wire Wire Line
	7300 4100 7300 4000
Wire Wire Line
	7300 3600 7300 3700
$Comp
L power:+VSW #PWR?
U 1 1 626981BE
P 7300 3600
AR Path="/626981BE" Ref="#PWR?"  Part="1" 
AR Path="/604A900E/626981BE" Ref="#PWR053"  Part="1" 
F 0 "#PWR053" H 7300 3450 50  0001 C CNN
F 1 "+VSW" H 7315 3773 50  0000 C CNN
F 2 "" H 7300 3600 50  0001 C CNN
F 3 "" H 7300 3600 50  0001 C CNN
	1    7300 3600
	1    0    0    -1  
$EndComp
Text Label 1150 4700 0    50   ~ 0
DSI
Text Label 9150 3750 0    50   ~ 0
DSI
Wire Wire Line
	9500 3950 9400 3950
Wire Wire Line
	9400 3950 9400 3750
Wire Wire Line
	9400 3750 9500 3750
Wire Wire Line
	9400 3750 9150 3750
Connection ~ 9400 3750
NoConn ~ 10100 3850
$Comp
L power:VCC #PWR?
U 1 1 628963AB
P 3650 5600
AR Path="/628963AB" Ref="#PWR?"  Part="1" 
AR Path="/604A900E/628963AB" Ref="#PWR0105"  Part="1" 
F 0 "#PWR0105" H 3650 5450 50  0001 C CNN
F 1 "VCC" H 3665 5773 50  0000 C CNN
F 2 "" H 3650 5600 50  0001 C CNN
F 3 "" H 3650 5600 50  0001 C CNN
	1    3650 5600
	1    0    0    -1  
$EndComp
Wire Wire Line
	2850 5750 3050 5750
Connection ~ 4250 6150
Wire Wire Line
	4250 6150 4500 6150
Wire Wire Line
	2850 6150 4250 6150
Connection ~ 3050 5750
Wire Wire Line
	3050 5750 4500 5750
Wire Wire Line
	4150 6850 4250 6850
Wire Wire Line
	4250 6150 4250 6850
Wire Wire Line
	3150 6650 3050 6650
Wire Wire Line
	3050 6650 3050 5750
$Comp
L Device:R R?
U 1 1 62902365
P 9150 1000
AR Path="/60304BBA/62902365" Ref="R?"  Part="1" 
AR Path="/62902365" Ref="R?"  Part="1" 
AR Path="/604A900E/62902365" Ref="R19"  Part="1" 
F 0 "R19" V 9357 1000 50  0000 C CNN
F 1 "33" V 9266 1000 50  0000 C CNN
F 2 "Resistor_SMD:R_0603_1608Metric" V 9080 1000 50  0001 C CNN
F 3 "~" H 9150 1000 50  0001 C CNN
F 4 "C23140" H 9150 1000 50  0001 C CNN "LCSC"
	1    9150 1000
	0    -1   -1   0   
$EndComp
Text Label 8600 1000 0    50   ~ 0
~xBERR
Wire Wire Line
	8500 1000 9000 1000
Wire Wire Line
	9300 1000 9650 1000
$EndSCHEMATC
