EESchema Schematic File Version 4
EELAYER 30 0
EELAYER END
$Descr A4 11693 8268
encoding utf-8
Sheet 2 3
Title ""
Date ""
Rev ""
Comp ""
Comment1 ""
Comment2 ""
Comment3 ""
Comment4 ""
$EndDescr
$Comp
L power:VBUS #PWR?
U 1 1 6030B6FA
P 1050 1150
AR Path="/6030B6FA" Ref="#PWR?"  Part="1" 
AR Path="/60304BBA/6030B6FA" Ref="#PWR034"  Part="1" 
F 0 "#PWR034" H 1050 1000 50  0001 C CNN
F 1 "VBUS" H 1065 1323 50  0000 C CNN
F 2 "" H 1050 1150 50  0001 C CNN
F 3 "" H 1050 1150 50  0001 C CNN
	1    1050 1150
	1    0    0    -1  
$EndComp
Wire Wire Line
	3100 1400 1700 1400
Wire Wire Line
	1050 1400 1050 1150
Wire Wire Line
	3500 1400 3800 1400
Wire Wire Line
	3800 1400 3800 1150
$Comp
L power:VCC #PWR?
U 1 1 6030B704
P 3800 1150
AR Path="/6030B704" Ref="#PWR?"  Part="1" 
AR Path="/60304BBA/6030B704" Ref="#PWR045"  Part="1" 
F 0 "#PWR045" H 3800 1000 50  0001 C CNN
F 1 "VCC" H 3815 1323 50  0000 C CNN
F 2 "" H 3800 1150 50  0001 C CNN
F 3 "" H 3800 1150 50  0001 C CNN
	1    3800 1150
	1    0    0    -1  
$EndComp
$Comp
L power:+VSW #PWR046
U 1 1 60316768
P 8300 4050
F 0 "#PWR046" H 8300 3900 50  0001 C CNN
F 1 "+VSW" H 8315 4223 50  0000 C CNN
F 2 "" H 8300 4050 50  0001 C CNN
F 3 "" H 8300 4050 50  0001 C CNN
	1    8300 4050
	1    0    0    -1  
$EndComp
Wire Wire Line
	8300 4550 8300 4050
Wire Wire Line
	6100 4550 5800 4550
Connection ~ 3800 1400
Wire Wire Line
	3300 1700 3300 2200
Wire Wire Line
	3300 2200 2750 2200
Text Label 2850 2200 0    50   ~ 0
~EN_VUSB
Text Label 5350 5050 0    50   ~ 0
EN_VSW
$Comp
L Device:Q_PMOS_GSD Q1
U 1 1 6032EB98
P 3300 1500
F 0 "Q1" V 3642 1500 50  0000 C CNN
F 1 "Si2301CDS" V 3551 1500 50  0000 C CNN
F 2 "Package_TO_SOT_SMD:SOT-23" H 3500 1600 50  0001 C CNN
F 3 "~" H 3300 1500 50  0001 C CNN
F 4 "C10487" H 3300 1500 50  0001 C CNN "LCSC"
	1    3300 1500
	0    -1   -1   0   
$EndComp
Text HLabel 1100 4300 0    50   Input ~ 0
req_VSW
Text Label 5050 2150 0    50   ~ 0
~EN_VUSB
$Comp
L power:VCC #PWR?
U 1 1 6038A202
P 7000 4050
AR Path="/6038A202" Ref="#PWR?"  Part="1" 
AR Path="/60304BBA/6038A202" Ref="#PWR048"  Part="1" 
F 0 "#PWR048" H 7000 3900 50  0001 C CNN
F 1 "VCC" H 7015 4223 50  0000 C CNN
F 2 "" H 7000 4050 50  0001 C CNN
F 3 "" H 7000 4050 50  0001 C CNN
	1    7000 4050
	1    0    0    -1  
$EndComp
$Comp
L Device:R R20
U 1 1 6038A20D
P 7000 4300
F 0 "R20" H 7070 4346 50  0000 L CNN
F 1 "10k" H 7070 4255 50  0000 L CNN
F 2 "Resistor_SMD:R_0603_1608Metric" V 6930 4300 50  0001 C CNN
F 3 "~" H 7000 4300 50  0001 C CNN
F 4 "C25804" H 7000 4300 50  0001 C CNN "LCSC"
	1    7000 4300
	1    0    0    -1  
$EndComp
Wire Wire Line
	7000 4050 7000 4150
Text Label 4550 5050 2    50   ~ 0
~EN_VSW
$Comp
L Device:LED D5
U 1 1 60495BEB
P 6400 1800
F 0 "D5" V 6439 1682 50  0000 R CNN
F 1 "yellow" V 6348 1682 50  0000 R CNN
F 2 "LED_SMD:LED_0603_1608Metric" H 6400 1800 50  0001 C CNN
F 3 "~" H 6400 1800 50  0001 C CNN
F 4 "C72038" V 6400 1800 50  0001 C CNN "LCSC"
	1    6400 1800
	0    -1   -1   0   
$EndComp
$Comp
L Device:R R22
U 1 1 604967B4
P 6400 1400
F 0 "R22" H 6470 1446 50  0000 L CNN
F 1 "1k" H 6470 1355 50  0000 L CNN
F 2 "Resistor_SMD:R_0603_1608Metric" V 6330 1400 50  0001 C CNN
F 3 "~" H 6400 1400 50  0001 C CNN
F 4 "C21190" H 6400 1400 50  0001 C CNN "LCSC"
	1    6400 1400
	1    0    0    -1  
$EndComp
$Comp
L power:VCC #PWR?
U 1 1 604A8839
P 6400 1150
AR Path="/604A8839" Ref="#PWR?"  Part="1" 
AR Path="/60304BBA/604A8839" Ref="#PWR052"  Part="1" 
F 0 "#PWR052" H 6400 1000 50  0001 C CNN
F 1 "VCC" H 6415 1323 50  0000 C CNN
F 2 "" H 6400 1150 50  0001 C CNN
F 3 "" H 6400 1150 50  0001 C CNN
	1    6400 1150
	1    0    0    -1  
$EndComp
Wire Wire Line
	6400 1150 6400 1250
Wire Wire Line
	6400 1550 6400 1650
Wire Wire Line
	6400 1950 6400 2150
$Comp
L power:GND #PWR051
U 1 1 604D0ED6
P 2350 2800
F 0 "#PWR051" H 2350 2550 50  0001 C CNN
F 1 "GND" H 2355 2627 50  0000 C CNN
F 2 "" H 2350 2800 50  0001 C CNN
F 3 "" H 2350 2800 50  0001 C CNN
	1    2350 2800
	1    0    0    -1  
$EndComp
Wire Wire Line
	2350 2800 2350 2500
$Comp
L Device:C C10
U 1 1 6046FF5F
P 1050 2200
F 0 "C10" H 1165 2246 50  0000 L CNN
F 1 "10u" H 1165 2155 50  0000 L CNN
F 2 "Capacitor_SMD:C_1206_3216Metric" H 1088 2050 50  0001 C CNN
F 3 "~" H 1050 2200 50  0001 C CNN
F 4 "C13585" H 1050 2200 50  0001 C CNN "LCSC"
	1    1050 2200
	1    0    0    -1  
$EndComp
$Comp
L power:GND #PWR047
U 1 1 60473B38
P 8300 5050
F 0 "#PWR047" H 8300 4800 50  0001 C CNN
F 1 "GND" H 8305 4877 50  0000 C CNN
F 2 "" H 8300 5050 50  0001 C CNN
F 3 "" H 8300 5050 50  0001 C CNN
	1    8300 5050
	1    0    0    -1  
$EndComp
Wire Wire Line
	8300 5050 8300 4950
Wire Wire Line
	8300 4650 8300 4550
Connection ~ 8300 4550
Wire Wire Line
	1050 2350 1050 2800
$Comp
L power:GND #PWR035
U 1 1 6047FCB4
P 1050 2800
F 0 "#PWR035" H 1050 2550 50  0001 C CNN
F 1 "GND" H 1055 2627 50  0000 C CNN
F 2 "" H 1050 2800 50  0001 C CNN
F 3 "" H 1050 2800 50  0001 C CNN
	1    1050 2800
	1    0    0    -1  
$EndComp
Wire Wire Line
	1050 1400 1050 2050
Connection ~ 1050 1400
$Comp
L 74xx:74HC04 U5
U 7 1 60976854
P 9700 1600
F 0 "U5" H 9930 1646 50  0000 L CNN
F 1 "74HC14" H 9930 1555 50  0000 L CNN
F 2 "Package_SO:SOIC-14_3.9x8.7mm_P1.27mm" H 9700 1600 50  0001 C CNN
F 3 "http://www.ti.com/lit/gpn/sn74HC14" H 9700 1600 50  0001 C CNN
F 4 "C5605" H 9700 1600 50  0001 C CNN "LCSC"
	7    9700 1600
	1    0    0    -1  
$EndComp
$Comp
L power:VCC #PWR?
U 1 1 6097992B
P 9700 1000
AR Path="/6097992B" Ref="#PWR?"  Part="1" 
AR Path="/60304BBA/6097992B" Ref="#PWR076"  Part="1" 
F 0 "#PWR076" H 9700 850 50  0001 C CNN
F 1 "VCC" H 9715 1173 50  0000 C CNN
F 2 "" H 9700 1000 50  0001 C CNN
F 3 "" H 9700 1000 50  0001 C CNN
	1    9700 1000
	1    0    0    -1  
$EndComp
Wire Wire Line
	9700 1000 9700 1100
$Comp
L power:GND #PWR077
U 1 1 6097E553
P 9700 2200
F 0 "#PWR077" H 9700 1950 50  0001 C CNN
F 1 "GND" H 9705 2027 50  0000 C CNN
F 2 "" H 9700 2200 50  0001 C CNN
F 3 "" H 9700 2200 50  0001 C CNN
	1    9700 2200
	1    0    0    -1  
$EndComp
Wire Wire Line
	9700 2200 9700 2100
$Comp
L 74xx:74LS08 U4
U 5 1 609969F0
P 10500 1600
F 0 "U4" H 10730 1646 50  0000 L CNN
F 1 "74HC08" H 10730 1555 50  0000 L CNN
F 2 "Package_SO:SOIC-14_3.9x8.7mm_P1.27mm" H 10500 1600 50  0001 C CNN
F 3 "http://www.ti.com/lit/gpn/sn74LS08" H 10500 1600 50  0001 C CNN
F 4 "C5593" H 10500 1600 50  0001 C CNN "LCSC"
	5    10500 1600
	1    0    0    -1  
$EndComp
$Comp
L power:VCC #PWR?
U 1 1 6099B2EA
P 10500 1000
AR Path="/6099B2EA" Ref="#PWR?"  Part="1" 
AR Path="/60304BBA/6099B2EA" Ref="#PWR078"  Part="1" 
F 0 "#PWR078" H 10500 850 50  0001 C CNN
F 1 "VCC" H 10515 1173 50  0000 C CNN
F 2 "" H 10500 1000 50  0001 C CNN
F 3 "" H 10500 1000 50  0001 C CNN
	1    10500 1000
	1    0    0    -1  
$EndComp
Wire Wire Line
	10500 1000 10500 1100
$Comp
L power:GND #PWR079
U 1 1 609A7497
P 10500 2200
F 0 "#PWR079" H 10500 1950 50  0001 C CNN
F 1 "GND" H 10505 2027 50  0000 C CNN
F 2 "" H 10500 2200 50  0001 C CNN
F 3 "" H 10500 2200 50  0001 C CNN
	1    10500 2200
	1    0    0    -1  
$EndComp
Wire Wire Line
	10500 2200 10500 2100
$Comp
L Device:C C17
U 1 1 609C824F
P 10300 3550
AR Path="/60304BBA/609C824F" Ref="C17"  Part="1" 
AR Path="/609C824F" Ref="C?"  Part="1" 
AR Path="/604A900E/609C824F" Ref="C?"  Part="1" 
F 0 "C17" H 10415 3596 50  0000 L CNN
F 1 "100n" H 10415 3505 50  0000 L CNN
F 2 "Capacitor_SMD:C_0603_1608Metric" H 10338 3400 50  0001 C CNN
F 3 "~" H 10300 3550 50  0001 C CNN
F 4 "C14663" H 10300 3550 50  0001 C CNN "LCSC"
	1    10300 3550
	1    0    0    -1  
$EndComp
$Comp
L power:GND #PWR?
U 1 1 609C8255
P 10300 3800
AR Path="/609C8255" Ref="#PWR?"  Part="1" 
AR Path="/604A900E/609C8255" Ref="#PWR?"  Part="1" 
AR Path="/60304BBA/609C8255" Ref="#PWR080"  Part="1" 
F 0 "#PWR080" H 10300 3550 50  0001 C CNN
F 1 "GND" H 10305 3627 50  0000 C CNN
F 2 "" H 10300 3800 50  0001 C CNN
F 3 "" H 10300 3800 50  0001 C CNN
	1    10300 3800
	1    0    0    -1  
$EndComp
Wire Wire Line
	10300 3800 10300 3700
$Comp
L power:VCC #PWR?
U 1 1 609C825C
P 9850 3200
AR Path="/609C825C" Ref="#PWR?"  Part="1" 
AR Path="/604A900E/609C825C" Ref="#PWR?"  Part="1" 
AR Path="/60304BBA/609C825C" Ref="#PWR071"  Part="1" 
F 0 "#PWR071" H 9850 3050 50  0001 C CNN
F 1 "VCC" H 9865 3373 50  0000 C CNN
F 2 "" H 9850 3200 50  0001 C CNN
F 3 "" H 9850 3200 50  0001 C CNN
	1    9850 3200
	1    0    0    -1  
$EndComp
Wire Wire Line
	10300 3300 10300 3400
$Comp
L power:GND #PWR?
U 1 1 609C8263
P 9850 3800
AR Path="/609C8263" Ref="#PWR?"  Part="1" 
AR Path="/604A900E/609C8263" Ref="#PWR?"  Part="1" 
AR Path="/60304BBA/609C8263" Ref="#PWR072"  Part="1" 
F 0 "#PWR072" H 9850 3550 50  0001 C CNN
F 1 "GND" H 9855 3627 50  0000 C CNN
F 2 "" H 9850 3800 50  0001 C CNN
F 3 "" H 9850 3800 50  0001 C CNN
	1    9850 3800
	1    0    0    -1  
$EndComp
Wire Wire Line
	9850 3800 9850 3700
Wire Wire Line
	9850 3200 9850 3300
Wire Wire Line
	9850 3300 10300 3300
Connection ~ 9850 3300
Wire Wire Line
	9850 3300 9850 3400
$Comp
L Device:C C16
U 1 1 609C826F
P 9850 3550
AR Path="/60304BBA/609C826F" Ref="C16"  Part="1" 
AR Path="/609C826F" Ref="C?"  Part="1" 
AR Path="/604A900E/609C826F" Ref="C?"  Part="1" 
F 0 "C16" H 9965 3596 50  0000 L CNN
F 1 "100n" H 9965 3505 50  0000 L CNN
F 2 "Capacitor_SMD:C_0603_1608Metric" H 9888 3400 50  0001 C CNN
F 3 "~" H 9850 3550 50  0001 C CNN
F 4 "C14663" H 9850 3550 50  0001 C CNN "LCSC"
	1    9850 3550
	1    0    0    -1  
$EndComp
$Comp
L power:GND #PWR?
U 1 1 60AA6EC0
P 3800 2800
AR Path="/60AA6EC0" Ref="#PWR?"  Part="1" 
AR Path="/60304BBA/60AA6EC0" Ref="#PWR04"  Part="1" 
F 0 "#PWR04" H 3800 2550 50  0001 C CNN
F 1 "GND" H 3805 2627 50  0000 C CNN
F 2 "" H 3800 2800 50  0001 C CNN
F 3 "" H 3800 2800 50  0001 C CNN
	1    3800 2800
	1    0    0    -1  
$EndComp
Wire Wire Line
	3800 2800 3800 2350
Wire Wire Line
	3800 1400 3800 1800
$Comp
L power:PWR_FLAG #FLG02
U 1 1 60B97841
P 4200 1150
F 0 "#FLG02" H 4200 1225 50  0001 C CNN
F 1 "PWR_FLAG" H 4200 1323 50  0000 C CNN
F 2 "" H 4200 1150 50  0001 C CNN
F 3 "~" H 4200 1150 50  0001 C CNN
	1    4200 1150
	1    0    0    -1  
$EndComp
Wire Wire Line
	4200 1150 4200 1400
Wire Wire Line
	4200 1400 3800 1400
$Comp
L 74xx:74HC14 U5
U 5 1 60386E3D
P 1950 4300
F 0 "U5" H 1950 4617 50  0000 C CNN
F 1 "74HC14" H 1950 4526 50  0000 C CNN
F 2 "Package_SO:SOIC-14_3.9x8.7mm_P1.27mm" H 1950 4300 50  0001 C CNN
F 3 "http://www.ti.com/lit/gpn/sn74HC14" H 1950 4300 50  0001 C CNN
F 4 "C5605" H 1950 4300 50  0001 C CNN "LCSC"
	5    1950 4300
	1    0    0    -1  
$EndComp
$Comp
L 74xx:74HC14 U5
U 2 1 603BB90B
P 2650 5950
F 0 "U5" H 2650 6267 50  0000 C CNN
F 1 "74HC14" H 2650 6176 50  0000 C CNN
F 2 "Package_SO:SOIC-14_3.9x8.7mm_P1.27mm" H 2650 5950 50  0001 C CNN
F 3 "http://www.ti.com/lit/gpn/sn74HC14" H 2650 5950 50  0001 C CNN
F 4 "C5605" H 2650 5950 50  0001 C CNN "LCSC"
	2    2650 5950
	1    0    0    -1  
$EndComp
Text HLabel 7350 4750 2    50   Output ~ 0
~VSW_fault
$Comp
L 74xx:74LS08 U4
U 2 1 60772AD0
P 3850 5050
F 0 "U4" H 3850 4733 50  0000 C CNN
F 1 "74HC08" H 3850 4824 50  0000 C CNN
F 2 "Package_SO:SOIC-14_3.9x8.7mm_P1.27mm" H 3850 5050 50  0001 C CNN
F 3 "http://www.ti.com/lit/gpn/sn74LS08" H 3850 5050 50  0001 C CNN
F 4 "C5593" H 3850 5050 50  0001 C CNN "LCSC"
	2    3850 5050
	1    0    0    1   
$EndComp
$Comp
L Power_Management_Missing:BD2226G U10
U 1 1 618B4BEE
P 6500 4650
F 0 "U10" H 6500 5017 50  0000 C CNN
F 1 "BD2226G" H 6500 4926 50  0000 C CNN
F 2 "Package_TO_SOT_SMD:SOT-23-5" H 6500 5000 50  0001 C CNN
F 3 "" H 6450 4950 50  0001 C CNN
F 4 "C308587" H 6500 4650 50  0001 C CNN "LCSC"
	1    6500 4650
	1    0    0    -1  
$EndComp
Wire Wire Line
	7350 4750 7000 4750
Wire Wire Line
	7000 4450 7000 4750
Connection ~ 7000 4750
Wire Wire Line
	7000 4750 6900 4750
$Comp
L power:GND #PWR?
U 1 1 618D9485
P 6500 5050
AR Path="/618D9485" Ref="#PWR?"  Part="1" 
AR Path="/60304BBA/618D9485" Ref="#PWR039"  Part="1" 
F 0 "#PWR039" H 6500 4800 50  0001 C CNN
F 1 "GND" H 6505 4877 50  0000 C CNN
F 2 "" H 6500 5050 50  0001 C CNN
F 3 "" H 6500 5050 50  0001 C CNN
	1    6500 5050
	1    0    0    -1  
$EndComp
Wire Wire Line
	6500 5050 6500 4950
Wire Wire Line
	6100 4750 5800 4750
Wire Wire Line
	5800 4750 5800 5050
Wire Wire Line
	5800 5050 5250 5050
$Comp
L Device:C C2
U 1 1 61913E54
P 3800 2200
F 0 "C2" H 3915 2246 50  0000 L CNN
F 1 "10u" H 3915 2155 50  0000 L CNN
F 2 "Capacitor_SMD:C_1206_3216Metric" H 3838 2050 50  0001 C CNN
F 3 "~" H 3800 2200 50  0001 C CNN
F 4 "C13585" H 3800 2200 50  0001 C CNN "LCSC"
	1    3800 2200
	1    0    0    -1  
$EndComp
Wire Wire Line
	2150 2100 2050 2100
Wire Wire Line
	2050 2100 2050 1800
Wire Wire Line
	2050 1800 2350 1800
Connection ~ 3800 1800
Wire Wire Line
	3800 1800 3800 2050
$Comp
L Device:R R14
U 1 1 6194F943
P 1700 1650
F 0 "R14" H 1770 1696 50  0000 L CNN
F 1 "10k" H 1770 1605 50  0000 L CNN
F 2 "Resistor_SMD:R_0603_1608Metric" V 1630 1650 50  0001 C CNN
F 3 "~" H 1700 1650 50  0001 C CNN
F 4 "C25804" H 1700 1650 50  0001 C CNN "LCSC"
	1    1700 1650
	1    0    0    -1  
$EndComp
Wire Wire Line
	1700 1500 1700 1400
Connection ~ 1700 1400
Wire Wire Line
	1700 1400 1050 1400
$Comp
L Device:R R15
U 1 1 61964759
P 1700 2550
F 0 "R15" H 1770 2596 50  0000 L CNN
F 1 "1M" H 1770 2505 50  0000 L CNN
F 2 "Resistor_SMD:R_0603_1608Metric" V 1630 2550 50  0001 C CNN
F 3 "~" H 1700 2550 50  0001 C CNN
F 4 "C22935" H 1700 2550 50  0001 C CNN "LCSC"
	1    1700 2550
	1    0    0    -1  
$EndComp
$Comp
L power:GND #PWR?
U 1 1 61965C2C
P 1700 2800
AR Path="/61965C2C" Ref="#PWR?"  Part="1" 
AR Path="/60304BBA/61965C2C" Ref="#PWR037"  Part="1" 
F 0 "#PWR037" H 1700 2550 50  0001 C CNN
F 1 "GND" H 1705 2627 50  0000 C CNN
F 2 "" H 1700 2800 50  0001 C CNN
F 3 "" H 1700 2800 50  0001 C CNN
	1    1700 2800
	1    0    0    -1  
$EndComp
Wire Wire Line
	1700 2800 1700 2700
Wire Wire Line
	2150 2300 1700 2300
Wire Wire Line
	1700 2300 1700 1800
Wire Wire Line
	1700 2300 1700 2400
Connection ~ 1700 2300
Text Notes 1650 1000 0    50   ~ 0
Ideal diode for power coming from USB
Wire Wire Line
	5600 2150 5050 2150
$Comp
L power:VCC #PWR?
U 1 1 61A498B9
P 5800 4050
AR Path="/61A498B9" Ref="#PWR?"  Part="1" 
AR Path="/60304BBA/61A498B9" Ref="#PWR038"  Part="1" 
F 0 "#PWR038" H 5800 3900 50  0001 C CNN
F 1 "VCC" H 5815 4223 50  0000 C CNN
F 2 "" H 5800 4050 50  0001 C CNN
F 3 "" H 5800 4050 50  0001 C CNN
	1    5800 4050
	1    0    0    -1  
$EndComp
Wire Wire Line
	5800 4050 5800 4550
$Comp
L Device:C C11
U 1 1 61A70147
P 8300 4800
AR Path="/60304BBA/61A70147" Ref="C11"  Part="1" 
AR Path="/61A70147" Ref="C?"  Part="1" 
AR Path="/604A900E/61A70147" Ref="C?"  Part="1" 
F 0 "C11" H 8415 4846 50  0000 L CNN
F 1 "1u" H 8415 4755 50  0000 L CNN
F 2 "Capacitor_SMD:C_0603_1608Metric" H 8338 4650 50  0001 C CNN
F 3 "~" H 8300 4800 50  0001 C CNN
F 4 "C15849" H 8300 4800 50  0001 C CNN "LCSC"
	1    8300 4800
	1    0    0    -1  
$EndComp
Text Notes 4600 3700 0    50   ~ 0
Simple ideal diode for power coming from target,\nbut also supports powering the target from USB.
Wire Wire Line
	5700 2050 5600 2050
Wire Wire Line
	5600 2050 5600 2150
Wire Wire Line
	5600 2250 5700 2250
Connection ~ 5600 2150
Wire Wire Line
	5600 2150 5600 2250
Wire Wire Line
	6300 2150 6400 2150
$Comp
L Device:R R13
U 1 1 61AF2184
P 1300 4550
F 0 "R13" H 1370 4596 50  0000 L CNN
F 1 "10k" H 1370 4505 50  0000 L CNN
F 2 "Resistor_SMD:R_0603_1608Metric" V 1230 4550 50  0001 C CNN
F 3 "~" H 1300 4550 50  0001 C CNN
F 4 "C25804" H 1300 4550 50  0001 C CNN "LCSC"
	1    1300 4550
	1    0    0    -1  
$EndComp
$Comp
L 74xx:74HC14 U5
U 1 1 6038095F
P 1950 5950
F 0 "U5" H 1950 6267 50  0000 C CNN
F 1 "74HC14" H 1950 6176 50  0000 C CNN
F 2 "Package_SO:SOIC-14_3.9x8.7mm_P1.27mm" H 1950 5950 50  0001 C CNN
F 3 "http://www.ti.com/lit/gpn/sn74HC14" H 1950 5950 50  0001 C CNN
F 4 "C5605" H 1950 5950 50  0001 C CNN "LCSC"
	1    1950 5950
	1    0    0    -1  
$EndComp
$Comp
L 74xx:74LS08 U4
U 1 1 60562CD7
P 6000 2150
F 0 "U4" H 6000 2475 50  0000 C CNN
F 1 "74HC08" H 6000 2384 50  0000 C CNN
F 2 "Package_SO:SOIC-14_3.9x8.7mm_P1.27mm" H 6000 2150 50  0001 C CNN
F 3 "http://www.ti.com/lit/gpn/sn74LS08" H 6000 2150 50  0001 C CNN
F 4 "C5593" H 6000 2150 50  0001 C CNN "LCSC"
	1    6000 2150
	1    0    0    -1  
$EndComp
Wire Wire Line
	5800 5850 5800 5950
Wire Wire Line
	5800 5450 5800 5550
$Comp
L Device:R R23
U 1 1 604B1ABE
P 5800 5700
F 0 "R23" H 5870 5746 50  0000 L CNN
F 1 "1k" H 5870 5655 50  0000 L CNN
F 2 "Resistor_SMD:R_0603_1608Metric" V 5730 5700 50  0001 C CNN
F 3 "~" H 5800 5700 50  0001 C CNN
F 4 "C21190" H 5800 5700 50  0001 C CNN "LCSC"
	1    5800 5700
	1    0    0    -1  
$EndComp
$Comp
L Device:LED D6
U 1 1 604B1A09
P 5800 5300
F 0 "D6" V 5839 5182 50  0000 R CNN
F 1 "yellow" V 5748 5182 50  0000 R CNN
F 2 "LED_SMD:LED_0603_1608Metric" H 5800 5300 50  0001 C CNN
F 3 "~" H 5800 5300 50  0001 C CNN
F 4 "C72038" V 5800 5300 50  0001 C CNN "LCSC"
	1    5800 5300
	0    -1   -1   0   
$EndComp
Wire Wire Line
	6900 4550 8300 4550
Wire Wire Line
	3550 5150 3450 5150
$Comp
L Device:R R17
U 1 1 61CC5047
P 1300 6200
F 0 "R17" H 1370 6246 50  0000 L CNN
F 1 "15k" H 1370 6155 50  0000 L CNN
F 2 "Resistor_SMD:R_0603_1608Metric" V 1230 6200 50  0001 C CNN
F 3 "~" H 1300 6200 50  0001 C CNN
F 4 "C22809" H 1300 6200 50  0001 C CNN "LCSC"
	1    1300 6200
	1    0    0    -1  
$EndComp
$Comp
L Device:R R16
U 1 1 61CC5EB0
P 1300 5700
F 0 "R16" H 1370 5746 50  0000 L CNN
F 1 "4k3" H 1370 5655 50  0000 L CNN
F 2 "Resistor_SMD:R_0603_1608Metric" V 1230 5700 50  0001 C CNN
F 3 "~" H 1300 5700 50  0001 C CNN
F 4 "C23159" H 1300 5700 50  0001 C CNN "LCSC"
	1    1300 5700
	1    0    0    -1  
$EndComp
$Comp
L power:VBUS #PWR?
U 1 1 61CCAA5A
P 1300 5450
AR Path="/61CCAA5A" Ref="#PWR?"  Part="1" 
AR Path="/60304BBA/61CCAA5A" Ref="#PWR040"  Part="1" 
F 0 "#PWR040" H 1300 5300 50  0001 C CNN
F 1 "VBUS" H 1315 5623 50  0000 C CNN
F 2 "" H 1300 5450 50  0001 C CNN
F 3 "" H 1300 5450 50  0001 C CNN
	1    1300 5450
	1    0    0    -1  
$EndComp
Wire Wire Line
	1300 5850 1300 5950
Wire Wire Line
	1650 5950 1300 5950
Connection ~ 1300 5950
Wire Wire Line
	1300 5950 1300 6050
Wire Wire Line
	1300 5450 1300 5550
Wire Wire Line
	1300 6450 1300 6350
$Comp
L power:GND #PWR?
U 1 1 61CD75EA
P 1300 6450
AR Path="/61CD75EA" Ref="#PWR?"  Part="1" 
AR Path="/60304BBA/61CD75EA" Ref="#PWR042"  Part="1" 
F 0 "#PWR042" H 1300 6200 50  0001 C CNN
F 1 "GND" H 1305 6277 50  0000 C CNN
F 2 "" H 1300 6450 50  0001 C CNN
F 3 "" H 1300 6450 50  0001 C CNN
	1    1300 6450
	1    0    0    -1  
$EndComp
Text Notes 1650 6300 0    50   ~ 0
Forces VCC from target until VBUS comes near 4.5V.
Wire Wire Line
	2250 5950 2350 5950
Wire Wire Line
	2950 5950 3450 5950
Wire Wire Line
	3450 5150 3450 5950
$Comp
L Amplifier_Operational:LMV321 U3
U 1 1 61D6892D
P 2450 2200
F 0 "U3" H 2500 2350 50  0000 L CNN
F 1 "LMV321" H 2500 2050 50  0000 L CNN
F 2 "Package_TO_SOT_SMD:SOT-23-5" H 2450 2200 50  0001 L CNN
F 3 "http://www.ti.com/lit/ds/symlink/lmv324.pdf" H 2450 2200 50  0001 C CNN
F 4 "C7972" H 2450 2200 50  0001 C CNN "LCSC"
	1    2450 2200
	1    0    0    -1  
$EndComp
Wire Wire Line
	2350 1900 2350 1800
Connection ~ 2350 1800
Wire Wire Line
	2350 1800 3800 1800
$Comp
L 74xx:74HC14 U5
U 3 1 622AD6E1
P 4950 5050
AR Path="/60304BBA/622AD6E1" Ref="U5"  Part="3" 
AR Path="/604A900E/622AD6E1" Ref="U?"  Part="3" 
F 0 "U5" H 4950 5367 50  0000 C CNN
F 1 "74HC14" H 4950 5276 50  0000 C CNN
F 2 "Package_SO:SOIC-14_3.9x8.7mm_P1.27mm" H 4950 5050 50  0001 C CNN
F 3 "http://www.ti.com/lit/gpn/sn74HC14" H 4950 5050 50  0001 C CNN
F 4 "C5605" H 4950 5050 50  0001 C CNN "LCSC"
	3    4950 5050
	1    0    0    -1  
$EndComp
Wire Wire Line
	1100 4300 1300 4300
Wire Wire Line
	3550 4950 3450 4950
Wire Wire Line
	3450 4950 3450 4300
Wire Wire Line
	3450 4300 2250 4300
Wire Wire Line
	1300 4400 1300 4300
Connection ~ 1300 4300
Wire Wire Line
	1300 4300 1650 4300
Wire Wire Line
	1300 4800 1300 4700
$Comp
L power:GND #PWR?
U 1 1 622D57D2
P 1300 4800
AR Path="/622D57D2" Ref="#PWR?"  Part="1" 
AR Path="/60304BBA/622D57D2" Ref="#PWR036"  Part="1" 
F 0 "#PWR036" H 1300 4550 50  0001 C CNN
F 1 "GND" H 1305 4627 50  0000 C CNN
F 2 "" H 1300 4800 50  0001 C CNN
F 3 "" H 1300 4800 50  0001 C CNN
	1    1300 4800
	1    0    0    -1  
$EndComp
Text Label 3050 4300 0    50   ~ 0
~req_VSW
Text Label 3050 5950 0    50   ~ 0
TargetPwr
Wire Wire Line
	5800 5150 5800 5050
Connection ~ 5800 5050
Wire Wire Line
	4150 5050 4650 5050
$Comp
L power:GND #PWR?
U 1 1 626089A9
P 5800 5950
AR Path="/626089A9" Ref="#PWR?"  Part="1" 
AR Path="/60304BBA/626089A9" Ref="#PWR0104"  Part="1" 
F 0 "#PWR0104" H 5800 5700 50  0001 C CNN
F 1 "GND" H 5805 5777 50  0000 C CNN
F 2 "" H 5800 5950 50  0001 C CNN
F 3 "" H 5800 5950 50  0001 C CNN
	1    5800 5950
	1    0    0    -1  
$EndComp
$Comp
L Device:C C13
U 1 1 627D0D8D
P 4200 2200
F 0 "C13" H 4315 2246 50  0000 L CNN
F 1 "10u" H 4315 2155 50  0000 L CNN
F 2 "Capacitor_SMD:C_1206_3216Metric" H 4238 2050 50  0001 C CNN
F 3 "~" H 4200 2200 50  0001 C CNN
F 4 "C13585" H 4200 2200 50  0001 C CNN "LCSC"
	1    4200 2200
	1    0    0    -1  
$EndComp
$Comp
L power:GND #PWR?
U 1 1 627D1547
P 4200 2800
AR Path="/627D1547" Ref="#PWR?"  Part="1" 
AR Path="/60304BBA/627D1547" Ref="#PWR067"  Part="1" 
F 0 "#PWR067" H 4200 2550 50  0001 C CNN
F 1 "GND" H 4205 2627 50  0000 C CNN
F 2 "" H 4200 2800 50  0001 C CNN
F 3 "" H 4200 2800 50  0001 C CNN
	1    4200 2800
	1    0    0    -1  
$EndComp
Wire Wire Line
	4200 2800 4200 2350
Wire Wire Line
	4200 1400 4200 2050
Connection ~ 4200 1400
$EndSCHEMATC
